test.vcd
$date
	Thu Jan  4 14:00:16 2018
$end
$version
	Icarus Verilog
$end
$timescale
	1ps
$end
$scope module cpu_tb $end
$scope module cpu0 $end
$var wire 1 ! clk $end
$var wire 5 " rs2 [4:0] $end
$var wire 5 # rs1 [4:0] $end
$var wire 5 $ rd [4:0] $end
$var wire 32 % opc [31:0] $end
$var wire 32 & npc [31:0] $end
$var wire 1 ' is_busy $end
$var wire 1 ( get_npc $end
$var wire 7 ) _opcode [6:0] $end
$var wire 32 * _imm [31:0] $end
$var wire 7 + _fun7 [6:0] $end
$var wire 3 , _fun3 [2:0] $end
$scope module ic $end
$var wire 1 ! clk $end
$var wire 32 - opc [31:0] $end
$var wire 32 . tmp_instr [31:0] $end
$var wire 5 / rs2 [4:0] $end
$var wire 5 0 rs1 [4:0] $end
$var wire 5 1 rd [4:0] $end
$var wire 7 2 opcode [6:0] $end
$var wire 32 3 npc [31:0] $end
$var wire 1 ' is_busy $end
$var wire 32 4 imm [31:0] $end
$var wire 1 ( get_npc $end
$var wire 7 5 fun7 [6:0] $end
$var wire 3 6 fun3 [2:0] $end
$var wire 1 7 done $end
$var reg 32 8 instr [31:0] $end
$var reg 1 9 is_fetch $end
$var reg 32 : pc [31:0] $end
$scope module decode $end
$var wire 1 ! clk $end
$var wire 32 ; instr [31:0] $end
$var reg 3 < fun3 [2:0] $end
$var reg 7 = fun7 [6:0] $end
$var reg 32 > imm [31:0] $end
$var reg 7 ? opCode [6:0] $end
$var reg 5 @ rd [4:0] $end
$var reg 5 A rs1 [4:0] $end
$var reg 5 B rs2 [4:0] $end
$upscope $end
$scope module instr_mem $end
$var wire 32 C adr [31:0] $end
$var wire 1 ! clk $end
$var wire 32 D in [31:0] $end
$var wire 1 E load $end
$var reg 1 7 done $end
$var reg 32 F out [31:0] $end
$var integer 32 G i [31:0] $end
$upscope $end
$upscope $end
$scope module rg $end
$var wire 3 H _fun3 [2:0] $end
$var wire 7 I _fun7 [6:0] $end
$var wire 32 J _imm [31:0] $end
$var wire 7 K _opcode [6:0] $end
$var wire 1 ! clk $end
$var wire 32 L opc [31:0] $end
$var wire 5 M rd [4:0] $end
$var wire 5 N rs1 [4:0] $end
$var wire 5 O rs2 [4:0] $end
$var wire 32 P mem_out [31:0] $end
$var wire 1 Q mem_done $end
$var wire 1 R mem_busy $end
$var reg 1 ( get_npc $end
$var reg 1 ' is_busy $end
$var reg 32 S mem_adr [31:0] $end
$var reg 1 T mem_deb $end
$var reg 32 U mem_in [31:0] $end
$var reg 1 V mem_load $end
$var reg 3 W mem_siz [2:0] $end
$var reg 1 X mem_start $end
$var reg 32 Y npc [31:0] $end
$var reg 32 Z tmp_pc [31:0] $end
$var integer 32 [ i [31:0] $end
$var integer 32 \ qhead [31:0] $end
$var integer 32 ] qsz [31:0] $end
$var integer 32 ^ qtail [31:0] $end
$scope module alu[0] $end
$var wire 1 _ done $end
$var wire 3 ` fun3 [2:0] $end
$var wire 7 a fun7 [6:0] $end
$var wire 32 b rs1 [31:0] $end
$var wire 32 c rs2 [31:0] $end
$var wire 1 d start $end
$var reg 1 e _done $end
$var reg 1 f busy $end
$var reg 1 g neg $end
$var reg 32 h res [31:0] $end
$var reg 1 i zero $end
$upscope $end
$scope module alu[1] $end
$var wire 1 j done $end
$var wire 3 k fun3 [2:0] $end
$var wire 7 l fun7 [6:0] $end
$var wire 32 m rs1 [31:0] $end
$var wire 32 n rs2 [31:0] $end
$var wire 1 o start $end
$var reg 1 j _done $end
$var reg 1 p busy $end
$var reg 1 q neg $end
$var reg 32 r res [31:0] $end
$var reg 1 s zero $end
$upscope $end
$scope module alu[2] $end
$var wire 1 t done $end
$var wire 3 u fun3 [2:0] $end
$var wire 7 v fun7 [6:0] $end
$var wire 32 w rs1 [31:0] $end
$var wire 32 x rs2 [31:0] $end
$var wire 1 y start $end
$var reg 1 t _done $end
$var reg 1 z busy $end
$var reg 1 { neg $end
$var reg 32 | res [31:0] $end
$var reg 1 } zero $end
$upscope $end
$scope module alu[3] $end
$var wire 1 ~ done $end
$var wire 3 !" fun3 [2:0] $end
$var wire 7 "" fun7 [6:0] $end
$var wire 32 #" rs1 [31:0] $end
$var wire 32 $" rs2 [31:0] $end
$var wire 1 %" start $end
$var reg 1 ~ _done $end
$var reg 1 &" busy $end
$var reg 1 '" neg $end
$var reg 32 (" res [31:0] $end
$var reg 1 )" zero $end
$upscope $end
$scope module alu[4] $end
$var wire 1 *" done $end
$var wire 3 +" fun3 [2:0] $end
$var wire 7 ," fun7 [6:0] $end
$var wire 32 -" rs1 [31:0] $end
$var wire 32 ." rs2 [31:0] $end
$var wire 1 /" start $end
$var reg 1 *" _done $end
$var reg 1 0" busy $end
$var reg 1 1" neg $end
$var reg 32 2" res [31:0] $end
$var reg 1 3" zero $end
$upscope $end
$scope module alu[5] $end
$var wire 1 4" done $end
$var wire 3 5" fun3 [2:0] $end
$var wire 7 6" fun7 [6:0] $end
$var wire 32 7" rs1 [31:0] $end
$var wire 32 8" rs2 [31:0] $end
$var wire 1 9" start $end
$var reg 1 4" _done $end
$var reg 1 :" busy $end
$var reg 1 ;" neg $end
$var reg 32 <" res [31:0] $end
$var reg 1 =" zero $end
$upscope $end
$scope module alu[6] $end
$var wire 1 >" done $end
$var wire 3 ?" fun3 [2:0] $end
$var wire 7 @" fun7 [6:0] $end
$var wire 32 A" rs1 [31:0] $end
$var wire 32 B" rs2 [31:0] $end
$var wire 1 C" start $end
$var reg 1 >" _done $end
$var reg 1 D" busy $end
$var reg 1 E" neg $end
$var reg 32 F" res [31:0] $end
$var reg 1 G" zero $end
$upscope $end
$scope module alu[7] $end
$var wire 1 H" done $end
$var wire 3 I" fun3 [2:0] $end
$var wire 7 J" fun7 [6:0] $end
$var wire 32 K" rs1 [31:0] $end
$var wire 32 L" rs2 [31:0] $end
$var wire 1 M" start $end
$var reg 1 H" _done $end
$var reg 1 N" busy $end
$var reg 1 O" neg $end
$var reg 32 P" res [31:0] $end
$var reg 1 Q" zero $end
$upscope $end
$scope module mem $end
$var wire 32 R" adr [31:0] $end
$var wire 1 T deb $end
$var wire 32 S" in [31:0] $end
$var wire 1 V load $end
$var wire 3 T" siz [2:0] $end
$var wire 1 X start $end
$var reg 1 R busy $end
$var reg 1 Q done $end
$var reg 32 U" out [31:0] $end
$var integer 32 V" i [31:0] $end
$upscope $end
$scope begin init $end
$var integer 32 W" i [31:0] $end
$upscope $end
$scope begin newcmd $end
$var integer 32 X" i [31:0] $end
$var integer 32 Y" r [31:0] $end
$upscope $end
$scope begin tmper $end
$var reg 3 Z" tmp [2:0] $end
$upscope $end
$upscope $end
$upscope $end
$upscope $end
$enddefinitions $end
#0
$dumpvars
bx Z"
bx Y"
bx X"
b100001 W"
b1000000000000 V"
bx U"
b10 T"
b0 S"
b0 R"
xQ"
bx P"
xO"
0N"
0M"
b0 L"
b0 K"
b0 J"
b0 I"
0H"
xG"
bx F"
xE"
0D"
0C"
b0 B"
b0 A"
b0 @"
b0 ?"
0>"
x="
bx <"
x;"
0:"
09"
b0 8"
b0 7"
b0 6"
b0 5"
04"
x3"
bx 2"
x1"
00"
0/"
b0 ."
b0 -"
b0 ,"
b0 +"
0*"
x)"
bx ("
x'"
0&"
0%"
b0 $"
b0 #"
b0 ""
b0 !"
0~
x}
bx |
x{
0z
0y
b0 x
b0 w
b0 v
b0 u
0t
xs
bx r
xq
0p
0o
b0 n
b0 m
b0 l
b0 k
0j
xi
bx h
xg
0f
0e
zd
bz c
bz b
bz a
bz `
0_
b0 ^
b0 ]
b0 \
bx [
bx Z
bx Y
0X
b10 W
0V
b0 U
xT
b0 S
0R
0Q
bx P
b0 O
b0 N
b101 M
b0 L
b110111 K
b101 J
b0 I
b101 H
b1000000000000 G
b101001010110111 F
0E
b0 D
b0 C
b0 B
b0 A
b101 @
b110111 ?
b101 >
b0 =
b101 <
b101001010110111 ;
b0 :
19
b0 8
17
b101 6
b0 5
b101 4
bx 3
b110111 2
b101 1
b0 0
b0 /
b101001010110111 .
b0 -
b101 ,
b0 +
b101 *
b110111 )
x(
x'
bx &
b0 %
b101 $
b0 #
b0 "
0!
$end
#50000
b10011 8
1!
#50001
1j
0q
0s
b101 r
0p
b10100 V"
1o
0T
b111 [
b101 m
b0 X"
b1 Y"
b0 Z
0(
#50002
b110 *
b110 4
b110 >
b110 J
b111 ,
b111 6
b111 <
b111 H
b10011 )
b10011 2
b10011 ?
b10011 K
b110 "
b110 /
b110 B
b110 O
b11 #
b11 0
b11 A
b11 N
b110 $
b110 1
b110 @
b110 M
b11000011111001100010011 .
b11000011111001100010011 ;
b11000011111001100010011 F
17
0j
b100 %
b100 -
b100 L
b100 :
b100 C
b10100 V"
0'
1(
0o
b100 &
b100 3
b100 Y
0T
b100 [
#100000
0!
#150000
b11000011111001100010011 8
1!
#150001
1j
1s
b0 r
0p
b10100 V"
1o
0T
b111 [
b111 k
b110 n
b0 m
b0 X"
b1 Y"
b100 Z
0(
#150002
b110 ,
b110 6
b110 <
b110 H
b110111 )
b110111 2
b110111 ?
b110111 K
b0 "
b0 /
b0 B
b0 O
b0 #
b0 0
b0 A
b0 N
b11 $
b11 1
b11 @
b11 M
b110000110110111 .
b110000110110111 ;
b110000110110111 F
17
0j
b1000 %
b1000 -
b1000 L
b1000 :
b1000 C
b10100 V"
0'
1(
0o
b1000 &
b1000 3
b1000 Y
0T
b100 [
#200000
0!
#250000
b110000110110111 8
1!
#250001
1j
0s
b110 r
0p
b10100 V"
1o
b0 k
0T
b111 [
b0 n
b110 m
b0 X"
b1 Y"
b1000 Z
0(
#250002
b11 *
b11 4
b11 >
b11 J
b11 ,
b11 6
b11 <
b11 H
b110 $
b110 1
b110 @
b110 M
b11001100110111 .
b11001100110111 ;
b11001100110111 F
17
0j
b1100 %
b1100 -
b1100 L
b1100 :
b1100 C
b10100 V"
0'
1(
0o
b1100 &
b1100 3
b1100 Y
0T
b100 [
#300000
0!
#350000
b11001100110111 8
1!
#350001
1j
b11 r
0p
b10100 V"
1o
0T
b111 [
b11 m
b0 X"
b1 Y"
b1100 Z
0(
#350002
b1 *
b1 4
b1 >
b1 J
b1 ,
b1 6
b1 <
b1 H
b10 $
b10 1
b10 @
b10 M
b1000100110111 .
b1000100110111 ;
b1000100110111 F
17
0j
b10000 %
b10000 -
b10000 L
b10000 :
b10000 C
b10100 V"
0'
1(
0o
b10000 &
b10000 3
b10000 Y
0T
b100 [
#400000
0!
#450000
b1000100110111 8
1!
#450001
1j
b1 r
0p
b10100 V"
1o
0T
b111 [
b1 m
b0 X"
b1 Y"
b10000 Z
0(
#450002
b111 *
b111 4
b111 >
b111 J
b100 ,
b100 6
b100 <
b100 H
b10011 )
b10011 2
b10011 ?
b10011 K
b111 "
b111 /
b111 B
b111 O
b10 #
b10 0
b10 A
b10 N
b101 $
b101 1
b101 @
b101 M
b11100010100001010010011 .
b11100010100001010010011 ;
b11100010100001010010011 F
17
0j
b10100 %
b10100 -
b10100 L
b10100 :
b10100 C
b10100 V"
0'
1(
0o
b10100 &
b10100 3
b10100 Y
0T
b100 [
#500000
0!
#550000
b11100010100001010010011 8
1!
#550001
1j
b110 r
0p
b10100 V"
1o
0T
b111 [
b100 k
b111 n
b0 X"
b1 Y"
b10100 Z
0(
#550002
b1000 *
b1000 4
b1000 >
b1000 J
b0 ,
b0 6
b0 <
b0 H
b110111 )
b110111 2
b110111 ?
b110111 K
b0 "
b0 /
b0 B
b0 O
b1 #
b1 0
b1 A
b1 N
b1000001010110111 .
b1000001010110111 ;
b1000001010110111 F
17
0j
b11000 %
b11000 -
b11000 L
b11000 :
b11000 C
b10100 V"
0'
1(
0o
b11000 &
b11000 3
b11000 Y
0T
b100 [
#600000
0!
#650000
b1000001010110111 8
1!
#650001
1j
b1000 r
0p
b10100 V"
1o
b0 k
0T
b111 [
b0 n
b1000 m
b0 X"
b1 Y"
b11000 Z
0(
#650002
b11 *
b11 4
b11 >
b11 J
b11 ,
b11 6
b11 <
b11 H
b0 #
b0 0
b0 A
b0 N
b11001010110111 .
b11001010110111 ;
b11001010110111 F
17
0j
b11100 %
b11100 -
b11100 L
b11100 :
b11100 C
b10100 V"
0'
1(
0o
b11100 &
b11100 3
b11100 Y
0T
b100 [
#700000
0!
#750000
b11001010110111 8
1!
#750001
1j
b11 r
0p
b10100 V"
1o
0T
b111 [
b11 m
b0 X"
b1 Y"
b11100 Z
0(
#750002
b110 *
b110 4
b110 >
b110 J
b110 ,
b110 6
b110 <
b110 H
b11 $
b11 1
b11 @
b11 M
b110000110110111 .
b110000110110111 ;
b110000110110111 F
17
0j
b100000 %
b100000 -
b100000 L
b100000 :
b100000 C
b10100 V"
0'
1(
0o
b100000 &
b100000 3
b100000 Y
0T
b100 [
#800000
0!
#850000
b110000110110111 8
1!
#850001
1j
b110 r
0p
b10100 V"
1o
0T
b111 [
b110 m
b0 X"
b1 Y"
b100000 Z
0(
#850002
b1010 *
b1010 4
b1010 >
b1010 J
b10 ,
b10 6
b10 <
b10 H
b1 #
b1 0
b1 A
b1 N
b110 $
b110 1
b110 @
b110 M
b1010001100110111 .
b1010001100110111 ;
b1010001100110111 F
17
0j
b100100 %
b100100 -
b100100 L
b100100 :
b100100 C
b10100 V"
0'
1(
0o
b100100 &
b100100 3
b100100 Y
0T
b100 [
#900000
0!
#950000
b1010001100110111 8
1!
#950001
1j
b1010 r
0p
b10100 V"
1o
0T
b111 [
b1010 m
b0 X"
b1 Y"
b100100 Z
0(
#950002
b1001 *
b1001 4
b1001 >
b1001 J
b1 ,
b1 6
b1 <
b1 H
b1 $
b1 1
b1 @
b1 M
b1001000010110111 .
b1001000010110111 ;
b1001000010110111 F
17
0j
b101000 %
b101000 -
b101000 L
b101000 :
b101000 C
b10100 V"
0'
1(
0o
b101000 &
b101000 3
b101000 Y
0T
b100 [
#1000000
0!
#1050000
b1001000010110111 8
1!
#1050001
1j
b1001 r
0p
b10100 V"
1o
0T
b111 [
b1001 m
b0 X"
b1 Y"
b101000 Z
0(
#1050002
b101 *
b101 4
b101 >
b101 J
b110 ,
b110 6
b110 <
b110 H
b10011 )
b10011 2
b10011 ?
b10011 K
b101 "
b101 /
b101 B
b101 O
b110 #
b110 0
b110 A
b110 N
b11 $
b11 1
b11 @
b11 M
b10100110110000110010011 .
b10100110110000110010011 ;
b10100110110000110010011 F
17
0j
b101100 %
b101100 -
b101100 L
b101100 :
b101100 C
b10100 V"
0'
1(
0o
b101100 &
b101100 3
b101100 Y
0T
b100 [
#1100000
0!
#1150000
b10100110110000110010011 8
1!
#1150001
1j
b1111 r
0p
b10100 V"
1o
0T
b111 [
b110 k
b101 n
b1010 m
b0 X"
b1 Y"
b101100 Z
0(
#1150002
b1 *
b1 4
b1 >
b1 J
b1 ,
b1 6
b1 <
b1 H
b110111 )
b110111 2
b110111 ?
b110111 K
b0 "
b0 /
b0 B
b0 O
b0 #
b0 0
b0 A
b0 N
b101 $
b101 1
b101 @
b101 M
b1001010110111 .
b1001010110111 ;
b1001010110111 F
17
0j
b110000 %
b110000 -
b110000 L
b110000 :
b110000 C
b10100 V"
0'
1(
0o
b110000 &
b110000 3
b110000 Y
0T
b100 [
#1200000
0!
#1250000
b1001010110111 8
1!
#1250001
1j
b1 r
0p
b10100 V"
1o
b0 k
0T
b111 [
b0 n
b1 m
b0 X"
b1 Y"
b110000 Z
0(
#1250002
b11 *
b11 4
b11 >
b11 J
b0 ,
b0 6
b0 <
b0 H
b10011 )
b10011 2
b10011 ?
b10011 K
b11 "
b11 /
b11 B
b11 O
b101 #
b101 0
b101 A
b101 N
b1 $
b1 1
b1 @
b1 M
b1100101000000010010011 .
b1100101000000010010011 ;
b1100101000000010010011 F
17
0j
b110100 %
b110100 -
b110100 L
b110100 :
b110100 C
b10100 V"
0'
1(
0o
b110100 &
b110100 3
b110100 Y
0T
b100 [
#1300000
0!
#1350000
b1100101000000010010011 8
1!
#1350001
1j
b100 r
0p
b10100 V"
1o
0T
b111 [
b11 n
b0 X"
b1 Y"
b110100 Z
0(
#1350002
b100 *
b100 4
b100 >
b100 J
b10 ,
b10 6
b10 <
b10 H
b100011 )
b100011 2
b100011 ?
b100011 K
b100 "
b100 /
b100 B
b100 O
b0 #
b0 0
b0 A
b0 N
b100 $
b100 1
b100 @
b100 M
b10000000010001000100011 .
b10000000010001000100011 ;
b10000000010001000100011 F
17
0j
b111000 %
b111000 -
b111000 L
b111000 :
b111000 C
b10100 V"
0'
1(
0o
b111000 &
b111000 3
b111000 Y
0T
b100 [
#1400000
0!
#1450000
b10000000010001000100011 8
1!
#1450001
1j
0p
b10100 V"
1o
0T
b111 [
b100 n
b0 m
b10 l
b1 ^
b0 X"
b1 Y"
b111000 Z
0(
#1450002
b10 *
b10 4
b10 >
b10 J
b0 ,
b0 6
b0 <
b0 H
b10011 )
b10011 2
b10011 ?
b10011 K
b10 "
b10 /
b10 B
b10 O
b101 #
b101 0
b101 A
b101 N
b110 $
b110 1
b110 @
b110 M
b1000101000001100010011 .
b1000101000001100010011 ;
b1000101000001100010011 F
17
b111100 %
b111100 -
b111100 L
b111100 :
b111100 C
b10100 V"
0'
1(
b111100 &
b111100 3
b111100 Y
0T
b100 [
#1500000
0!
#1550000
b1000101000001100010011 8
1!
#1550001
b0 P
b0 U"
1t
0{
0}
b11 |
0z
1Q
0R
b10100 V"
1y
1X
1V
b100 S
b100 R"
0T
b111 [
b10 x
b1 w
b0 X"
b10 Y"
b111100 Z
0(
#1550002
b1000 *
b1000 4
b1000 >
b1000 J
b10 ,
b10 6
b10 <
b10 H
b11 )
b11 2
b11 ?
b11 K
b1000 "
b1000 /
b1000 B
b1000 O
b0 #
b0 0
b0 A
b0 N
b100000000010001100000011 .
b100000000010001100000011 ;
b100000000010001100000011 F
17
0t
0j
b1000000 %
b1000000 -
b1000000 L
b1000000 :
b1000000 C
b10100 V"
0X
0'
1(
0y
b1 \
0o
b1000000 &
b1000000 3
b1000000 Y
0T
b100 [
#1600000
0!
#1650000
b100000000010001100000011 8
1!
#1650001
1j
b1000 r
0p
b10100 V"
1o
0T
b111 [
b1000 n
b10 ^
b0 X"
b1 Y"
b1000000 Z
0(
#1650002
b10 *
b10 4
b10 >
b10 J
b110111 )
b110111 2
b110111 ?
b110111 K
b0 "
b0 /
b0 B
b0 O
b101 $
b101 1
b101 @
b101 M
b10001010110111 .
b10001010110111 ;
b10001010110111 F
17
b1000100 %
b1000100 -
b1000100 L
b1000100 :
b1000100 C
b10100 V"
0'
1(
b1000100 &
b1000100 3
b1000100 Y
0T
b100 [
#1700000
0!
#1750000
b10001010110111 8
1!
#1750001
1t
b10 |
0z
0R
1Q
b10100 V"
1y
1X
0V
b1000 S
b1000 R"
0T
b111 [
b0 x
b10 w
b0 X"
b10 Y"
b1000100 Z
0(
#1750002
b11 *
b11 4
b11 >
b11 J
b110 ,
b110 6
b110 <
b110 H
b110011 )
b110011 2
b110011 ?
b110011 K
b11 "
b11 /
b11 B
b11 O
b100 #
b100 0
b100 A
b100 N
b11 $
b11 1
b11 @
b11 M
b1100100110000110110011 .
b1100100110000110110011 ;
b1100100110000110110011 F
17
0t
0j
b1001000 %
b1001000 -
b1001000 L
b1001000 :
b1001000 C
b10100 V"
0X
0'
1(
0y
b10 \
0o
b1001000 &
b1001000 3
b1001000 Y
0T
b100 [
#1800000
0!
#1850000
b1100100110000110110011 8
1!
#1850001
1j
b1111 r
0p
b10100 V"
1o
0T
b111 [
b0 l
b110 k
b1111 n
b0 X"
b1 Y"
b1001000 Z
0(
#1850002
b10000 *
b10000 4
b10000 >
b10000 J
b10 ,
b10 6
b10 <
b10 H
b100011 )
b100011 2
b100011 ?
b100011 K
b0 #
b0 0
b0 A
b0 N
b10000 $
b10000 1
b10000 @
b10000 M
b1100000010100000100011 .
b1100000010100000100011 ;
b1100000010100000100011 F
17
0j
b1001100 %
b1001100 -
b1001100 L
b1001100 :
b1001100 C
b10100 V"
0'
1(
0o
b1001100 &
b1001100 3
b1001100 Y
0T
b100 [
#1900000
0!
#1950000
b1100000010100000100011 8
1!
#1950001
1j
b10000 r
0p
b10100 V"
1o
b0 k
b10000 n
0T
b111 [
b10 l
b11 ^
b0 X"
b1 Y"
b1001100 Z
0(
#1950002
b0 ,
b0 6
b0 <
b0 H
b0 )
b0 2
b0 ?
b0 K
b0 "
b0 /
b0 B
b0 O
b0 $
b0 1
b0 @
b0 M
b0 .
b0 ;
b0 F
17
b1010000 %
b1010000 -
b1010000 L
b1010000 :
b1010000 C
b10100 V"
0'
1(
b1010000 &
b1010000 3
b1010000 Y
0T
b100 [
#2000000
0!
#2050000
b0 8
1!
#2050001
0R
1Q
b10100 V"
1X
1V
b1111 U
b1111 S"
b10000 S
b10000 R"
0T
b111 [
b1010000 Z
0(
#2050002
17
0j
b1010100 %
b1010100 -
b1010100 L
b1010100 :
b1010100 C
b10100 V"
0X
0'
1(
b11 \
0o
b1010100 &
b1010100 3
b1010100 Y
0T
b100 [
#2100000
0!
#2150000
1!
#2150001
b10100 V"
0T
b111 [
b1010100 Z
0(
#2150002
17
b1011000 %
b1011000 -
b1011000 L
b1011000 :
b1011000 C
b10100 V"
0'
1(
b1011000 &
b1011000 3
b1011000 Y
0T
b100 [
#2200000
0!
#2250000
1!
#2250001
b10100 V"
0T
b111 [
b1011000 Z
0(
#2250002
17
b1011100 %
b1011100 -
b1011100 L
b1011100 :
b1011100 C
b10100 V"
0'
1(
b1011100 &
b1011100 3
b1011100 Y
0T
b100 [
#2300000
0!
#2350000
1!
#2350001
b10100 V"
0T
b111 [
b1011100 Z
0(
#2350002
17
b1100000 %
b1100000 -
b1100000 L
b1100000 :
b1100000 C
b10100 V"
0'
1(
b1100000 &
b1100000 3
b1100000 Y
0T
b100 [
#2400000
0!
#2450000
1!
#2450001
b10100 V"
0T
b111 [
b1100000 Z
0(
#2450002
17
b1100100 %
b1100100 -
b1100100 L
b1100100 :
b1100100 C
b10100 V"
0'
1(
b1100100 &
b1100100 3
b1100100 Y
0T
b100 [
#2500000
0!
#2550000
1!
#2550001
b10100 V"
0T
b111 [
b1100100 Z
0(
#2550002
17
b1101000 %
b1101000 -
b1101000 L
b1101000 :
b1101000 C
b10100 V"
0'
1(
b1101000 &
b1101000 3
b1101000 Y
0T
b100 [
#2600000
0!
#2650000
1!
#2650001
b10100 V"
0T
b111 [
b1101000 Z
0(
#2650002
17
b1101100 %
b1101100 -
b1101100 L
b1101100 :
b1101100 C
b10100 V"
0'
1(
b1101100 &
b1101100 3
b1101100 Y
0T
b100 [
#2700000
0!
#2750000
1!
#2750001
b10100 V"
0T
b111 [
b1101100 Z
0(
#2750002
17
b1110000 %
b1110000 -
b1110000 L
b1110000 :
b1110000 C
b10100 V"
0'
1(
b1110000 &
b1110000 3
b1110000 Y
0T
b100 [
#2800000
0!
#2850000
1!
#2850001
b10100 V"
0T
b111 [
b1110000 Z
0(
#2850002
17
b1110100 %
b1110100 -
b1110100 L
b1110100 :
b1110100 C
b10100 V"
0'
1(
b1110100 &
b1110100 3
b1110100 Y
0T
b100 [
#2900000
0!
#2950000
1!
#2950001
b10100 V"
0T
b111 [
b1110100 Z
0(
#2950002
17
b1111000 %
b1111000 -
b1111000 L
b1111000 :
b1111000 C
b10100 V"
0'
1(
b1111000 &
b1111000 3
b1111000 Y
0T
b100 [
#3000000
0!
#3050000
1!
#3050001
b10100 V"
0T
b111 [
b1111000 Z
0(
#3050002
17
b1111100 %
b1111100 -
b1111100 L
b1111100 :
b1111100 C
b10100 V"
0'
1(
b1111100 &
b1111100 3
b1111100 Y
0T
b100 [
#3100000
0!
#3150000
1!
#3150001
b10100 V"
0T
b111 [
b1111100 Z
0(
#3150002
17
b10000000 %
b10000000 -
b10000000 L
b10000000 :
b10000000 C
b10100 V"
0'
1(
b10000000 &
b10000000 3
b10000000 Y
0T
b100 [
#3200000
0!
#3250000
1!
#3250001
b10100 V"
0T
b111 [
b10000000 Z
0(
#3250002
17
b10000100 %
b10000100 -
b10000100 L
b10000100 :
b10000100 C
b10100 V"
0'
1(
b10000100 &
b10000100 3
b10000100 Y
0T
b100 [
#3300000
0!
#3350000
1!
#3350001
b10100 V"
0T
b111 [
b10000100 Z
0(
#3350002
17
b10001000 %
b10001000 -
b10001000 L
b10001000 :
b10001000 C
b10100 V"
0'
1(
b10001000 &
b10001000 3
b10001000 Y
0T
b100 [
#3400000
0!
#3450000
1!
#3450001
b10100 V"
0T
b111 [
b10001000 Z
0(
#3450002
17
b10001100 %
b10001100 -
b10001100 L
b10001100 :
b10001100 C
b10100 V"
0'
1(
b10001100 &
b10001100 3
b10001100 Y
0T
b100 [
#3500000
0!
#3550000
1!
#3550001
b10100 V"
0T
b111 [
b10001100 Z
0(
#3550002
17
b10010000 %
b10010000 -
b10010000 L
b10010000 :
b10010000 C
b10100 V"
0'
1(
b10010000 &
b10010000 3
b10010000 Y
0T
b100 [
#3600000
0!
#3650000
1!
#3650001
b10100 V"
0T
b111 [
b10010000 Z
0(
#3650002
17
b10010100 %
b10010100 -
b10010100 L
b10010100 :
b10010100 C
b10100 V"
0'
1(
b10010100 &
b10010100 3
b10010100 Y
0T
b100 [
#3700000
0!
#3750000
1!
#3750001
b10100 V"
0T
b111 [
b10010100 Z
0(
#3750002
17
b10011000 %
b10011000 -
b10011000 L
b10011000 :
b10011000 C
b10100 V"
0'
1(
b10011000 &
b10011000 3
b10011000 Y
0T
b100 [
#3800000
0!
#3850000
1!
#3850001
b10100 V"
0T
b111 [
b10011000 Z
0(
#3850002
17
b10011100 %
b10011100 -
b10011100 L
b10011100 :
b10011100 C
b10100 V"
0'
1(
b10011100 &
b10011100 3
b10011100 Y
0T
b100 [
#3900000
0!
#3950000
1!
#3950001
b10100 V"
0T
b111 [
b10011100 Z
0(
#3950002
17
b10100000 %
b10100000 -
b10100000 L
b10100000 :
b10100000 C
b10100 V"
0'
1(
b10100000 &
b10100000 3
b10100000 Y
0T
b100 [
#4000000
0!
#4050000
1!
#4050001
b10100 V"
0T
b111 [
b10100000 Z
0(
#4050002
17
b10100100 %
b10100100 -
b10100100 L
b10100100 :
b10100100 C
b10100 V"
0'
1(
b10100100 &
b10100100 3
b10100100 Y
0T
b100 [
#4100000
0!
#4150000
1!
#4150001
b10100 V"
0T
b111 [
b10100100 Z
0(
#4150002
17
b10101000 %
b10101000 -
b10101000 L
b10101000 :
b10101000 C
b10100 V"
0'
1(
b10101000 &
b10101000 3
b10101000 Y
0T
b100 [
#4200000
0!
#4250000
1!
#4250001
b10100 V"
0T
b111 [
b10101000 Z
0(
#4250002
17
b10101100 %
b10101100 -
b10101100 L
b10101100 :
b10101100 C
b10100 V"
0'
1(
b10101100 &
b10101100 3
b10101100 Y
0T
b100 [
#4300000
0!
#4350000
1!
#4350001
b10100 V"
0T
b111 [
b10101100 Z
0(
#4350002
17
b10110000 %
b10110000 -
b10110000 L
b10110000 :
b10110000 C
b10100 V"
0'
1(
b10110000 &
b10110000 3
b10110000 Y
0T
b100 [
#4400000
0!
#4450000
1!
#4450001
b10100 V"
0T
b111 [
b10110000 Z
0(
#4450002
17
b10110100 %
b10110100 -
b10110100 L
b10110100 :
b10110100 C
b10100 V"
0'
1(
b10110100 &
b10110100 3
b10110100 Y
0T
b100 [
#4500000
0!
#4550000
1!
#4550001
b10100 V"
0T
b111 [
b10110100 Z
0(
#4550002
17
b10111000 %
b10111000 -
b10111000 L
b10111000 :
b10111000 C
b10100 V"
0'
1(
b10111000 &
b10111000 3
b10111000 Y
0T
b100 [
#4600000
0!
#4650000
1!
#4650001
b10100 V"
0T
b111 [
b10111000 Z
0(
#4650002
17
b10111100 %
b10111100 -
b10111100 L
b10111100 :
b10111100 C
b10100 V"
0'
1(
b10111100 &
b10111100 3
b10111100 Y
0T
b100 [
#4700000
0!
#4750000
1!
#4750001
b10100 V"
0T
b111 [
b10111100 Z
0(
#4750002
17
b11000000 %
b11000000 -
b11000000 L
b11000000 :
b11000000 C
b10100 V"
0'
1(
b11000000 &
b11000000 3
b11000000 Y
0T
b100 [
#4800000
0!
#4850000
1!
#4850001
b10100 V"
0T
b111 [
b11000000 Z
0(
#4850002
17
b11000100 %
b11000100 -
b11000100 L
b11000100 :
b11000100 C
b10100 V"
0'
1(
b11000100 &
b11000100 3
b11000100 Y
0T
b100 [
#4900000
0!
#4950000
1!
#4950001
b10100 V"
0T
b111 [
b11000100 Z
0(
#4950002
17
b11001000 %
b11001000 -
b11001000 L
b11001000 :
b11001000 C
b10100 V"
0'
1(
b11001000 &
b11001000 3
b11001000 Y
0T
b100 [
#5000000
0!
#5050000
1!
#5050001
b10100 V"
0T
b111 [
b11001000 Z
0(
#5050002
17
b11001100 %
b11001100 -
b11001100 L
b11001100 :
b11001100 C
b10100 V"
0'
1(
b11001100 &
b11001100 3
b11001100 Y
0T
b100 [
#5100000
0!
#5150000
1!
#5150001
b10100 V"
0T
b111 [
b11001100 Z
0(
#5150002
17
b11010000 %
b11010000 -
b11010000 L
b11010000 :
b11010000 C
b10100 V"
0'
1(
b11010000 &
b11010000 3
b11010000 Y
0T
b100 [
#5200000
0!
#5250000
1!
#5250001
b10100 V"
0T
b111 [
b11010000 Z
0(
#5250002
17
b11010100 %
b11010100 -
b11010100 L
b11010100 :
b11010100 C
b10100 V"
0'
1(
b11010100 &
b11010100 3
b11010100 Y
0T
b100 [
#5300000
0!
#5350000
1!
#5350001
b10100 V"
0T
b111 [
b11010100 Z
0(
#5350002
17
b11011000 %
b11011000 -
b11011000 L
b11011000 :
b11011000 C
b10100 V"
0'
1(
b11011000 &
b11011000 3
b11011000 Y
0T
b100 [
#5400000
0!
#5450000
1!
#5450001
b10100 V"
0T
b111 [
b11011000 Z
0(
