test.vcd
$date
	Thu Jan  4 15:26:26 2018
$end
$version
	Icarus Verilog
$end
$timescale
	1ps
$end
$scope module cpu_tb $end
$scope module cpu0 $end
$var wire 1 ! clk $end
$var wire 5 " rs2 [4:0] $end
$var wire 5 # rs1 [4:0] $end
$var wire 5 $ rd [4:0] $end
$var wire 32 % opc [31:0] $end
$var wire 32 & npc [31:0] $end
$var wire 1 ' is_busy $end
$var wire 1 ( get_npc $end
$var wire 7 ) _opcode [6:0] $end
$var wire 32 * _imm [31:0] $end
$var wire 7 + _fun7 [6:0] $end
$var wire 3 , _fun3 [2:0] $end
$scope module ic $end
$var wire 1 ! clk $end
$var wire 32 - opc [31:0] $end
$var wire 32 . tmp_instr [31:0] $end
$var wire 5 / rs2 [4:0] $end
$var wire 5 0 rs1 [4:0] $end
$var wire 5 1 rd [4:0] $end
$var wire 7 2 opcode [6:0] $end
$var wire 32 3 npc [31:0] $end
$var wire 1 ' is_busy $end
$var wire 32 4 imm [31:0] $end
$var wire 1 ( get_npc $end
$var wire 7 5 fun7 [6:0] $end
$var wire 3 6 fun3 [2:0] $end
$var wire 1 7 done $end
$var reg 32 8 instr [31:0] $end
$var reg 1 9 is_fetch $end
$var reg 32 : pc [31:0] $end
$scope module decode $end
$var wire 1 ! clk $end
$var wire 32 ; instr [31:0] $end
$var reg 3 < fun3 [2:0] $end
$var reg 7 = fun7 [6:0] $end
$var reg 32 > imm [31:0] $end
$var reg 7 ? opCode [6:0] $end
$var reg 5 @ rd [4:0] $end
$var reg 5 A rs1 [4:0] $end
$var reg 5 B rs2 [4:0] $end
$upscope $end
$scope module instr_mem $end
$var wire 32 C adr [31:0] $end
$var wire 1 ! clk $end
$var wire 32 D in [31:0] $end
$var wire 1 E load $end
$var reg 1 7 done $end
$var reg 32 F out [31:0] $end
$var integer 32 G i [31:0] $end
$upscope $end
$upscope $end
$scope module rg $end
$var wire 3 H _fun3 [2:0] $end
$var wire 7 I _fun7 [6:0] $end
$var wire 32 J _imm [31:0] $end
$var wire 7 K _opcode [6:0] $end
$var wire 1 ! clk $end
$var wire 32 L opc [31:0] $end
$var wire 5 M rd [4:0] $end
$var wire 5 N rs1 [4:0] $end
$var wire 5 O rs2 [4:0] $end
$var wire 32 P mem_out [31:0] $end
$var wire 1 Q mem_done $end
$var wire 1 R mem_busy $end
$var reg 1 ( get_npc $end
$var reg 1 ' is_busy $end
$var reg 32 S mem_adr [31:0] $end
$var reg 1 T mem_deb $end
$var reg 32 U mem_in [31:0] $end
$var reg 1 V mem_load $end
$var reg 3 W mem_siz [2:0] $end
$var reg 1 X mem_start $end
$var reg 32 Y npc [31:0] $end
$var reg 32 Z tmp_pc [31:0] $end
$var integer 32 [ i [31:0] $end
$var integer 32 \ qhead [31:0] $end
$var integer 32 ] qsz [31:0] $end
$var integer 32 ^ qtail [31:0] $end
$scope module alu[0] $end
$var wire 1 _ done $end
$var wire 3 ` fun3 [2:0] $end
$var wire 7 a fun7 [6:0] $end
$var wire 32 b rs1 [31:0] $end
$var wire 32 c rs2 [31:0] $end
$var wire 1 d start $end
$var reg 1 e _done $end
$var reg 1 f busy $end
$var reg 1 g neg $end
$var reg 32 h res [31:0] $end
$var reg 1 i zero $end
$upscope $end
$scope module alu[1] $end
$var wire 1 j done $end
$var wire 3 k fun3 [2:0] $end
$var wire 7 l fun7 [6:0] $end
$var wire 32 m rs1 [31:0] $end
$var wire 32 n rs2 [31:0] $end
$var wire 1 o start $end
$var reg 1 j _done $end
$var reg 1 p busy $end
$var reg 1 q neg $end
$var reg 32 r res [31:0] $end
$var reg 1 s zero $end
$upscope $end
$scope module alu[2] $end
$var wire 1 t done $end
$var wire 3 u fun3 [2:0] $end
$var wire 7 v fun7 [6:0] $end
$var wire 32 w rs1 [31:0] $end
$var wire 32 x rs2 [31:0] $end
$var wire 1 y start $end
$var reg 1 t _done $end
$var reg 1 z busy $end
$var reg 1 { neg $end
$var reg 32 | res [31:0] $end
$var reg 1 } zero $end
$upscope $end
$scope module alu[3] $end
$var wire 1 ~ done $end
$var wire 3 !" fun3 [2:0] $end
$var wire 7 "" fun7 [6:0] $end
$var wire 32 #" rs1 [31:0] $end
$var wire 32 $" rs2 [31:0] $end
$var wire 1 %" start $end
$var reg 1 ~ _done $end
$var reg 1 &" busy $end
$var reg 1 '" neg $end
$var reg 32 (" res [31:0] $end
$var reg 1 )" zero $end
$upscope $end
$scope module alu[4] $end
$var wire 1 *" done $end
$var wire 3 +" fun3 [2:0] $end
$var wire 7 ," fun7 [6:0] $end
$var wire 32 -" rs1 [31:0] $end
$var wire 32 ." rs2 [31:0] $end
$var wire 1 /" start $end
$var reg 1 *" _done $end
$var reg 1 0" busy $end
$var reg 1 1" neg $end
$var reg 32 2" res [31:0] $end
$var reg 1 3" zero $end
$upscope $end
$scope module alu[5] $end
$var wire 1 4" done $end
$var wire 3 5" fun3 [2:0] $end
$var wire 7 6" fun7 [6:0] $end
$var wire 32 7" rs1 [31:0] $end
$var wire 32 8" rs2 [31:0] $end
$var wire 1 9" start $end
$var reg 1 4" _done $end
$var reg 1 :" busy $end
$var reg 1 ;" neg $end
$var reg 32 <" res [31:0] $end
$var reg 1 =" zero $end
$upscope $end
$scope module alu[6] $end
$var wire 1 >" done $end
$var wire 3 ?" fun3 [2:0] $end
$var wire 7 @" fun7 [6:0] $end
$var wire 32 A" rs1 [31:0] $end
$var wire 32 B" rs2 [31:0] $end
$var wire 1 C" start $end
$var reg 1 >" _done $end
$var reg 1 D" busy $end
$var reg 1 E" neg $end
$var reg 32 F" res [31:0] $end
$var reg 1 G" zero $end
$upscope $end
$scope module alu[7] $end
$var wire 1 H" done $end
$var wire 3 I" fun3 [2:0] $end
$var wire 7 J" fun7 [6:0] $end
$var wire 32 K" rs1 [31:0] $end
$var wire 32 L" rs2 [31:0] $end
$var wire 1 M" start $end
$var reg 1 H" _done $end
$var reg 1 N" busy $end
$var reg 1 O" neg $end
$var reg 32 P" res [31:0] $end
$var reg 1 Q" zero $end
$upscope $end
$scope module mem $end
$var wire 32 R" adr [31:0] $end
$var wire 1 T deb $end
$var wire 32 S" in [31:0] $end
$var wire 1 V load $end
$var wire 3 T" siz [2:0] $end
$var wire 1 X start $end
$var reg 1 R busy $end
$var reg 1 Q done $end
$var reg 32 U" out [31:0] $end
$var integer 32 V" i [31:0] $end
$upscope $end
$scope begin init $end
$var integer 32 W" i [31:0] $end
$upscope $end
$scope begin newcmd $end
$var integer 32 X" i [31:0] $end
$var integer 32 Y" r [31:0] $end
$upscope $end
$scope begin tmper $end
$var reg 3 Z" tmp [2:0] $end
$upscope $end
$upscope $end
$upscope $end
$upscope $end
$enddefinitions $end
#0
$dumpvars
bx Z"
bx Y"
bx X"
b100001 W"
b1000000000000 V"
bx U"
b10 T"
b0 S"
b0 R"
xQ"
bx P"
xO"
0N"
0M"
b0 L"
b0 K"
b0 J"
b0 I"
0H"
xG"
bx F"
xE"
0D"
0C"
b0 B"
b0 A"
b0 @"
b0 ?"
0>"
x="
bx <"
x;"
0:"
09"
b0 8"
b0 7"
b0 6"
b0 5"
04"
x3"
bx 2"
x1"
00"
0/"
b0 ."
b0 -"
b0 ,"
b0 +"
0*"
x)"
bx ("
x'"
0&"
0%"
b0 $"
b0 #"
b0 ""
b0 !"
0~
x}
bx |
x{
0z
0y
b0 x
b0 w
b0 v
b0 u
0t
xs
bx r
xq
0p
0o
b0 n
b0 m
b0 l
b0 k
0j
xi
bx h
xg
0f
0e
zd
bz c
bz b
bz a
bz `
0_
b0 ^
b0 ]
b0 \
bx [
bx Z
bx Y
0X
b10 W
0V
b0 U
xT
b0 S
0R
0Q
bx P
b0 O
b1 N
b11 M
b0 L
b1101111 K
b1000 J
b0 I
b0 H
b1000000000000 G
b1000000111101111 F
0E
b0 D
b0 C
b0 B
b1 A
b11 @
b1101111 ?
b1000 >
b0 =
b0 <
b1000000111101111 ;
b0 :
19
b0 8
17
b0 6
b0 5
b1000 4
bx 3
b1101111 2
b11 1
b1 0
b0 /
b1000000111101111 .
b0 -
b0 ,
b0 +
b1000 *
b1101111 )
x(
x'
bx &
b0 %
b11 $
b1 #
b0 "
0!
$end
#50000
b10011 8
1!
#50001
1j
0q
0s
b1000 r
0p
b10100 V"
1o
0T
b111 [
b1000 m
b0 X"
b1 Y"
b0 Z
0(
#50002
b10 *
b10 4
b10 >
b10 J
b10 ,
b10 6
b10 <
b10 H
b110111 )
b110111 2
b110111 ?
b110111 K
b0 #
b0 0
b0 A
b0 N
b10 $
b10 1
b10 @
b10 M
b10000100110111 .
b10000100110111 ;
b10000100110111 F
17
0j
b1000 %
b1000 -
b1000 L
b1000 :
b1000 C
b10100 V"
0'
1(
0o
b1000 &
b1000 3
b1000 Y
0T
b100 [
#100000
0!
#150000
b10000100110111 8
1!
#150001
1j
b10 r
0p
b10100 V"
1o
0T
b111 [
b10 m
b0 X"
b1 Y"
b1000 Z
0(
#150002
b0 ,
b0 6
b0 <
b0 H
b0 )
b0 2
b0 ?
b0 K
b0 $
b0 1
b0 @
b0 M
b0 .
b0 ;
b0 F
17
0j
b1100 %
b1100 -
b1100 L
b1100 :
b1100 C
b10100 V"
0'
1(
0o
b1100 &
b1100 3
b1100 Y
0T
b100 [
#200000
0!
#250000
b0 8
1!
#250001
b10100 V"
0T
b111 [
b1100 Z
0(
#250002
17
b10000 %
b10000 -
b10000 L
b10000 :
b10000 C
b10100 V"
0'
1(
b10000 &
b10000 3
b10000 Y
0T
b100 [
#300000
0!
#350000
1!
#350001
b10100 V"
0T
b111 [
b10000 Z
0(
#350002
17
b10100 %
b10100 -
b10100 L
b10100 :
b10100 C
b10100 V"
0'
1(
b10100 &
b10100 3
b10100 Y
0T
b100 [
#400000
0!
#450000
1!
#450001
b10100 V"
0T
b111 [
b10100 Z
0(
#450002
17
b11000 %
b11000 -
b11000 L
b11000 :
b11000 C
b10100 V"
0'
1(
b11000 &
b11000 3
b11000 Y
0T
b100 [
#500000
0!
#550000
1!
#550001
b10100 V"
0T
b111 [
b11000 Z
0(
#550002
17
b11100 %
b11100 -
b11100 L
b11100 :
b11100 C
b10100 V"
0'
1(
b11100 &
b11100 3
b11100 Y
0T
b100 [
#600000
0!
#650000
1!
#650001
b10100 V"
0T
b111 [
b11100 Z
0(
#650002
17
b100000 %
b100000 -
b100000 L
b100000 :
b100000 C
b10100 V"
0'
1(
b100000 &
b100000 3
b100000 Y
0T
b100 [
#700000
0!
#750000
1!
#750001
b10100 V"
0T
b111 [
b100000 Z
0(
#750002
17
b100100 %
b100100 -
b100100 L
b100100 :
b100100 C
b10100 V"
0'
1(
b100100 &
b100100 3
b100100 Y
0T
b100 [
#800000
0!
#850000
1!
#850001
b10100 V"
0T
b111 [
b100100 Z
0(
#850002
17
b101000 %
b101000 -
b101000 L
b101000 :
b101000 C
b10100 V"
0'
1(
b101000 &
b101000 3
b101000 Y
0T
b100 [
#900000
0!
#950000
1!
#950001
b10100 V"
0T
b111 [
b101000 Z
0(
#950002
17
b101100 %
b101100 -
b101100 L
b101100 :
b101100 C
b10100 V"
0'
1(
b101100 &
b101100 3
b101100 Y
0T
b100 [
#1000000
0!
#1050000
1!
#1050001
b10100 V"
0T
b111 [
b101100 Z
0(
#1050002
17
b110000 %
b110000 -
b110000 L
b110000 :
b110000 C
b10100 V"
0'
1(
b110000 &
b110000 3
b110000 Y
0T
b100 [
#1100000
0!
#1150000
1!
#1150001
b10100 V"
0T
b111 [
b110000 Z
0(
#1150002
17
b110100 %
b110100 -
b110100 L
b110100 :
b110100 C
b10100 V"
0'
1(
b110100 &
b110100 3
b110100 Y
0T
b100 [
#1200000
0!
#1250000
1!
#1250001
b10100 V"
0T
b111 [
b110100 Z
0(
#1250002
17
b111000 %
b111000 -
b111000 L
b111000 :
b111000 C
b10100 V"
0'
1(
b111000 &
b111000 3
b111000 Y
0T
b100 [
#1300000
0!
#1350000
1!
#1350001
b10100 V"
0T
b111 [
b111000 Z
0(
#1350002
17
b111100 %
b111100 -
b111100 L
b111100 :
b111100 C
b10100 V"
0'
1(
b111100 &
b111100 3
b111100 Y
0T
b100 [
#1400000
0!
#1450000
1!
#1450001
b10100 V"
0T
b111 [
b111100 Z
0(
#1450002
17
b1000000 %
b1000000 -
b1000000 L
b1000000 :
b1000000 C
b10100 V"
0'
1(
b1000000 &
b1000000 3
b1000000 Y
0T
b100 [
#1500000
0!
#1550000
1!
#1550001
b10100 V"
0T
b111 [
b1000000 Z
0(
#1550002
17
b1000100 %
b1000100 -
b1000100 L
b1000100 :
b1000100 C
b10100 V"
0'
1(
b1000100 &
b1000100 3
b1000100 Y
0T
b100 [
#1600000
0!
#1650000
1!
#1650001
b10100 V"
0T
b111 [
b1000100 Z
0(
#1650002
17
b1001000 %
b1001000 -
b1001000 L
b1001000 :
b1001000 C
b10100 V"
0'
1(
b1001000 &
b1001000 3
b1001000 Y
0T
b100 [
#1700000
0!
#1750000
1!
#1750001
b10100 V"
0T
b111 [
b1001000 Z
0(
#1750002
17
b1001100 %
b1001100 -
b1001100 L
b1001100 :
b1001100 C
b10100 V"
0'
1(
b1001100 &
b1001100 3
b1001100 Y
0T
b100 [
#1800000
0!
#1850000
1!
#1850001
b10100 V"
0T
b111 [
b1001100 Z
0(
#1850002
17
b1010000 %
b1010000 -
b1010000 L
b1010000 :
b1010000 C
b10100 V"
0'
1(
b1010000 &
b1010000 3
b1010000 Y
0T
b100 [
#1900000
0!
#1950000
1!
#1950001
b10100 V"
0T
b111 [
b1010000 Z
0(
#1950002
17
b1010100 %
b1010100 -
b1010100 L
b1010100 :
b1010100 C
b10100 V"
0'
1(
b1010100 &
b1010100 3
b1010100 Y
0T
b100 [
#2000000
0!
#2050000
1!
#2050001
b10100 V"
0T
b111 [
b1010100 Z
0(
#2050002
17
b1011000 %
b1011000 -
b1011000 L
b1011000 :
b1011000 C
b10100 V"
0'
1(
b1011000 &
b1011000 3
b1011000 Y
0T
b100 [
#2100000
0!
#2150000
1!
#2150001
b10100 V"
0T
b111 [
b1011000 Z
0(
#2150002
17
b1011100 %
b1011100 -
b1011100 L
b1011100 :
b1011100 C
b10100 V"
0'
1(
b1011100 &
b1011100 3
b1011100 Y
0T
b100 [
#2200000
0!
#2250000
1!
#2250001
b10100 V"
0T
b111 [
b1011100 Z
0(
#2250002
17
b1100000 %
b1100000 -
b1100000 L
b1100000 :
b1100000 C
b10100 V"
0'
1(
b1100000 &
b1100000 3
b1100000 Y
0T
b100 [
#2300000
0!
#2350000
1!
#2350001
b10100 V"
0T
b111 [
b1100000 Z
0(
#2350002
17
b1100100 %
b1100100 -
b1100100 L
b1100100 :
b1100100 C
b10100 V"
0'
1(
b1100100 &
b1100100 3
b1100100 Y
0T
b100 [
#2400000
0!
#2450000
1!
#2450001
b10100 V"
0T
b111 [
b1100100 Z
0(
#2450002
17
b1101000 %
b1101000 -
b1101000 L
b1101000 :
b1101000 C
b10100 V"
0'
1(
b1101000 &
b1101000 3
b1101000 Y
0T
b100 [
#2500000
0!
#2550000
1!
#2550001
b10100 V"
0T
b111 [
b1101000 Z
0(
#2550002
17
b1101100 %
b1101100 -
b1101100 L
b1101100 :
b1101100 C
b10100 V"
0'
1(
b1101100 &
b1101100 3
b1101100 Y
0T
b100 [
#2600000
0!
#2650000
1!
#2650001
b10100 V"
0T
b111 [
b1101100 Z
0(
#2650002
17
b1110000 %
b1110000 -
b1110000 L
b1110000 :
b1110000 C
b10100 V"
0'
1(
b1110000 &
b1110000 3
b1110000 Y
0T
b100 [
#2700000
0!
#2750000
1!
#2750001
b10100 V"
0T
b111 [
b1110000 Z
0(
#2750002
17
b1110100 %
b1110100 -
b1110100 L
b1110100 :
b1110100 C
b10100 V"
0'
1(
b1110100 &
b1110100 3
b1110100 Y
0T
b100 [
#2800000
0!
#2850000
1!
#2850001
b10100 V"
0T
b111 [
b1110100 Z
0(
#2850002
17
b1111000 %
b1111000 -
b1111000 L
b1111000 :
b1111000 C
b10100 V"
0'
1(
b1111000 &
b1111000 3
b1111000 Y
0T
b100 [
#2900000
0!
#2950000
1!
#2950001
b10100 V"
0T
b111 [
b1111000 Z
0(
#2950002
17
b1111100 %
b1111100 -
b1111100 L
b1111100 :
b1111100 C
b10100 V"
0'
1(
b1111100 &
b1111100 3
b1111100 Y
0T
b100 [
#3000000
0!
#3050000
1!
#3050001
b10100 V"
0T
b111 [
b1111100 Z
0(
#3050002
17
b10000000 %
b10000000 -
b10000000 L
b10000000 :
b10000000 C
b10100 V"
0'
1(
b10000000 &
b10000000 3
b10000000 Y
0T
b100 [
#3100000
0!
#3150000
1!
#3150001
b10100 V"
0T
b111 [
b10000000 Z
0(
#3150002
17
b10000100 %
b10000100 -
b10000100 L
b10000100 :
b10000100 C
b10100 V"
0'
1(
b10000100 &
b10000100 3
b10000100 Y
0T
b100 [
#3200000
0!
#3250000
1!
#3250001
b10100 V"
0T
b111 [
b10000100 Z
0(
#3250002
17
b10001000 %
b10001000 -
b10001000 L
b10001000 :
b10001000 C
b10100 V"
0'
1(
b10001000 &
b10001000 3
b10001000 Y
0T
b100 [
#3300000
0!
#3350000
1!
#3350001
b10100 V"
0T
b111 [
b10001000 Z
0(
#3350002
17
b10001100 %
b10001100 -
b10001100 L
b10001100 :
b10001100 C
b10100 V"
0'
1(
b10001100 &
b10001100 3
b10001100 Y
0T
b100 [
#3400000
0!
#3450000
1!
#3450001
b10100 V"
0T
b111 [
b10001100 Z
0(
#3450002
17
b10010000 %
b10010000 -
b10010000 L
b10010000 :
b10010000 C
b10100 V"
0'
1(
b10010000 &
b10010000 3
b10010000 Y
0T
b100 [
#3500000
0!
#3550000
1!
#3550001
b10100 V"
0T
b111 [
b10010000 Z
0(
#3550002
17
b10010100 %
b10010100 -
b10010100 L
b10010100 :
b10010100 C
b10100 V"
0'
1(
b10010100 &
b10010100 3
b10010100 Y
0T
b100 [
#3600000
0!
#3650000
1!
#3650001
b10100 V"
0T
b111 [
b10010100 Z
0(
#3650002
17
b10011000 %
b10011000 -
b10011000 L
b10011000 :
b10011000 C
b10100 V"
0'
1(
b10011000 &
b10011000 3
b10011000 Y
0T
b100 [
#3700000
0!
#3750000
1!
#3750001
b10100 V"
0T
b111 [
b10011000 Z
0(
#3750002
17
b10011100 %
b10011100 -
b10011100 L
b10011100 :
b10011100 C
b10100 V"
0'
1(
b10011100 &
b10011100 3
b10011100 Y
0T
b100 [
#3800000
0!
#3850000
1!
#3850001
b10100 V"
0T
b111 [
b10011100 Z
0(
#3850002
17
b10100000 %
b10100000 -
b10100000 L
b10100000 :
b10100000 C
b10100 V"
0'
1(
b10100000 &
b10100000 3
b10100000 Y
0T
b100 [
#3900000
0!
#3950000
1!
#3950001
b10100 V"
0T
b111 [
b10100000 Z
0(
#3950002
17
b10100100 %
b10100100 -
b10100100 L
b10100100 :
b10100100 C
b10100 V"
0'
1(
b10100100 &
b10100100 3
b10100100 Y
0T
b100 [
#4000000
0!
#4050000
1!
#4050001
b10100 V"
0T
b111 [
b10100100 Z
0(
#4050002
17
b10101000 %
b10101000 -
b10101000 L
b10101000 :
b10101000 C
b10100 V"
0'
1(
b10101000 &
b10101000 3
b10101000 Y
0T
b100 [
#4100000
0!
#4150000
1!
#4150001
b10100 V"
0T
b111 [
b10101000 Z
0(
#4150002
17
b10101100 %
b10101100 -
b10101100 L
b10101100 :
b10101100 C
b10100 V"
0'
1(
b10101100 &
b10101100 3
b10101100 Y
0T
b100 [
#4200000
0!
#4250000
1!
#4250001
b10100 V"
0T
b111 [
b10101100 Z
0(
#4250002
17
b10110000 %
b10110000 -
b10110000 L
b10110000 :
b10110000 C
b10100 V"
0'
1(
b10110000 &
b10110000 3
b10110000 Y
0T
b100 [
#4300000
0!
#4350000
1!
#4350001
b10100 V"
0T
b111 [
b10110000 Z
0(
#4350002
17
b10110100 %
b10110100 -
b10110100 L
b10110100 :
b10110100 C
b10100 V"
0'
1(
b10110100 &
b10110100 3
b10110100 Y
0T
b100 [
#4400000
0!
#4450000
1!
#4450001
b10100 V"
0T
b111 [
b10110100 Z
0(
#4450002
17
b10111000 %
b10111000 -
b10111000 L
b10111000 :
b10111000 C
b10100 V"
0'
1(
b10111000 &
b10111000 3
b10111000 Y
0T
b100 [
#4500000
0!
#4550000
1!
#4550001
b10100 V"
0T
b111 [
b10111000 Z
0(
#4550002
17
b10111100 %
b10111100 -
b10111100 L
b10111100 :
b10111100 C
b10100 V"
0'
1(
b10111100 &
b10111100 3
b10111100 Y
0T
b100 [
#4600000
0!
#4650000
1!
#4650001
b10100 V"
0T
b111 [
b10111100 Z
0(
#4650002
17
b11000000 %
b11000000 -
b11000000 L
b11000000 :
b11000000 C
b10100 V"
0'
1(
b11000000 &
b11000000 3
b11000000 Y
0T
b100 [
#4700000
0!
#4750000
1!
#4750001
b10100 V"
0T
b111 [
b11000000 Z
0(
#4750002
17
b11000100 %
b11000100 -
b11000100 L
b11000100 :
b11000100 C
b10100 V"
0'
1(
b11000100 &
b11000100 3
b11000100 Y
0T
b100 [
#4800000
0!
#4850000
1!
#4850001
b10100 V"
0T
b111 [
b11000100 Z
0(
#4850002
17
b11001000 %
b11001000 -
b11001000 L
b11001000 :
b11001000 C
b10100 V"
0'
1(
b11001000 &
b11001000 3
b11001000 Y
0T
b100 [
#4900000
0!
#4950000
1!
#4950001
b10100 V"
0T
b111 [
b11001000 Z
0(
#4950002
17
b11001100 %
b11001100 -
b11001100 L
b11001100 :
b11001100 C
b10100 V"
0'
1(
b11001100 &
b11001100 3
b11001100 Y
0T
b100 [
#5000000
0!
#5050000
1!
#5050001
b10100 V"
0T
b111 [
b11001100 Z
0(
#5050002
17
b11010000 %
b11010000 -
b11010000 L
b11010000 :
b11010000 C
b10100 V"
0'
1(
b11010000 &
b11010000 3
b11010000 Y
0T
b100 [
#5100000
0!
#5150000
1!
#5150001
b10100 V"
0T
b111 [
b11010000 Z
0(
#5150002
17
b11010100 %
b11010100 -
b11010100 L
b11010100 :
b11010100 C
b10100 V"
0'
1(
b11010100 &
b11010100 3
b11010100 Y
0T
b100 [
#5200000
0!
#5250000
1!
#5250001
b10100 V"
0T
b111 [
b11010100 Z
0(
#5250002
17
b11011000 %
b11011000 -
b11011000 L
b11011000 :
b11011000 C
b10100 V"
0'
1(
b11011000 &
b11011000 3
b11011000 Y
0T
b100 [
#5300000
0!
#5350000
1!
#5350001
b10100 V"
0T
b111 [
b11011000 Z
0(
#5350002
17
b11011100 %
b11011100 -
b11011100 L
b11011100 :
b11011100 C
b10100 V"
0'
1(
b11011100 &
b11011100 3
b11011100 Y
0T
b100 [
#5400000
0!
#5450000
1!
#5450001
b10100 V"
0T
b111 [
b11011100 Z
0(
#5450002
17
b11100000 %
b11100000 -
b11100000 L
b11100000 :
b11100000 C
b10100 V"
0'
1(
b11100000 &
b11100000 3
b11100000 Y
0T
b100 [
#5500000
0!
#5550000
1!
#5550001
b10100 V"
0T
b111 [
b11100000 Z
0(
#5550002
17
b11100100 %
b11100100 -
b11100100 L
b11100100 :
b11100100 C
b10100 V"
0'
1(
b11100100 &
b11100100 3
b11100100 Y
0T
b100 [
#5600000
0!
#5650000
1!
#5650001
b10100 V"
0T
b111 [
b11100100 Z
0(
#5650002
17
b11101000 %
b11101000 -
b11101000 L
b11101000 :
b11101000 C
b10100 V"
0'
1(
b11101000 &
b11101000 3
b11101000 Y
0T
b100 [
#5700000
0!
#5750000
1!
#5750001
b10100 V"
0T
b111 [
b11101000 Z
0(
#5750002
17
b11101100 %
b11101100 -
b11101100 L
b11101100 :
b11101100 C
b10100 V"
0'
1(
b11101100 &
b11101100 3
b11101100 Y
0T
b100 [
#5800000
0!
#5850000
1!
#5850001
b10100 V"
0T
b111 [
b11101100 Z
0(
#5850002
17
b11110000 %
b11110000 -
b11110000 L
b11110000 :
b11110000 C
b10100 V"
0'
1(
b11110000 &
b11110000 3
b11110000 Y
0T
b100 [
#5900000
0!
#5950000
1!
#5950001
b10100 V"
0T
b111 [
b11110000 Z
0(
#5950002
17
b11110100 %
b11110100 -
b11110100 L
b11110100 :
b11110100 C
b10100 V"
0'
1(
b11110100 &
b11110100 3
b11110100 Y
0T
b100 [
#6000000
0!
#6050000
1!
#6050001
b10100 V"
0T
b111 [
b11110100 Z
0(
#6050002
17
b11111000 %
b11111000 -
b11111000 L
b11111000 :
b11111000 C
b10100 V"
0'
1(
b11111000 &
b11111000 3
b11111000 Y
0T
b100 [
#6100000
0!
#6150000
1!
#6150001
b10100 V"
0T
b111 [
b11111000 Z
0(
#6150002
17
b11111100 %
b11111100 -
b11111100 L
b11111100 :
b11111100 C
b10100 V"
0'
1(
b11111100 &
b11111100 3
b11111100 Y
0T
b100 [
#6200000
0!
#6250000
1!
#6250001
b10100 V"
0T
b111 [
b11111100 Z
0(
#6250002
17
b100000000 %
b100000000 -
b100000000 L
b100000000 :
b100000000 C
b10100 V"
0'
1(
b100000000 &
b100000000 3
b100000000 Y
0T
b100 [
#6300000
0!
#6350000
1!
#6350001
b10100 V"
0T
b111 [
b100000000 Z
0(
#6350002
17
b100000100 %
b100000100 -
b100000100 L
b100000100 :
b100000100 C
b10100 V"
0'
1(
b100000100 &
b100000100 3
b100000100 Y
0T
b100 [
#6400000
0!
#6450000
1!
#6450001
b10100 V"
0T
b111 [
b100000100 Z
0(
#6450002
17
b100001000 %
b100001000 -
b100001000 L
b100001000 :
b100001000 C
b10100 V"
0'
1(
b100001000 &
b100001000 3
b100001000 Y
0T
b100 [
#6500000
0!
#6550000
1!
#6550001
b10100 V"
0T
b111 [
b100001000 Z
0(
#6550002
17
b100001100 %
b100001100 -
b100001100 L
b100001100 :
b100001100 C
b10100 V"
0'
1(
b100001100 &
b100001100 3
b100001100 Y
0T
b100 [
#6600000
0!
#6650000
1!
#6650001
b10100 V"
0T
b111 [
b100001100 Z
0(
#6650002
17
b100010000 %
b100010000 -
b100010000 L
b100010000 :
b100010000 C
b10100 V"
0'
1(
b100010000 &
b100010000 3
b100010000 Y
0T
b100 [
#6700000
0!
#6750000
1!
#6750001
b10100 V"
0T
b111 [
b100010000 Z
0(
#6750002
17
b100010100 %
b100010100 -
b100010100 L
b100010100 :
b100010100 C
b10100 V"
0'
1(
b100010100 &
b100010100 3
b100010100 Y
0T
b100 [
#6800000
0!
#6850000
1!
#6850001
b10100 V"
0T
b111 [
b100010100 Z
0(
#6850002
17
b100011000 %
b100011000 -
b100011000 L
b100011000 :
b100011000 C
b10100 V"
0'
1(
b100011000 &
b100011000 3
b100011000 Y
0T
b100 [
#6900000
0!
#6950000
1!
#6950001
b10100 V"
0T
b111 [
b100011000 Z
0(
#6950002
17
b100011100 %
b100011100 -
b100011100 L
b100011100 :
b100011100 C
b10100 V"
0'
1(
b100011100 &
b100011100 3
b100011100 Y
0T
b100 [
#7000000
0!
#7050000
1!
#7050001
b10100 V"
0T
b111 [
b100011100 Z
0(
#7050002
17
b100100000 %
b100100000 -
b100100000 L
b100100000 :
b100100000 C
b10100 V"
0'
1(
b100100000 &
b100100000 3
b100100000 Y
0T
b100 [
#7100000
0!
#7150000
1!
#7150001
b10100 V"
0T
b111 [
b100100000 Z
0(
#7150002
17
b100100100 %
b100100100 -
b100100100 L
b100100100 :
b100100100 C
b10100 V"
0'
1(
b100100100 &
b100100100 3
b100100100 Y
0T
b100 [
#7200000
0!
#7250000
1!
#7250001
b10100 V"
0T
b111 [
b100100100 Z
0(
#7250002
17
b100101000 %
b100101000 -
b100101000 L
b100101000 :
b100101000 C
b10100 V"
0'
1(
b100101000 &
b100101000 3
b100101000 Y
0T
b100 [
#7300000
0!
#7350000
1!
#7350001
b10100 V"
0T
b111 [
b100101000 Z
0(
#7350002
17
b100101100 %
b100101100 -
b100101100 L
b100101100 :
b100101100 C
b10100 V"
0'
1(
b100101100 &
b100101100 3
b100101100 Y
0T
b100 [
#7400000
0!
#7450000
1!
#7450001
b10100 V"
0T
b111 [
b100101100 Z
0(
#7450002
17
b100110000 %
b100110000 -
b100110000 L
b100110000 :
b100110000 C
b10100 V"
0'
1(
b100110000 &
b100110000 3
b100110000 Y
0T
b100 [
#7500000
0!
#7550000
1!
#7550001
b10100 V"
0T
b111 [
b100110000 Z
0(
#7550002
17
b100110100 %
b100110100 -
b100110100 L
b100110100 :
b100110100 C
b10100 V"
0'
1(
b100110100 &
b100110100 3
b100110100 Y
0T
b100 [
#7600000
0!
#7650000
1!
#7650001
b10100 V"
0T
b111 [
b100110100 Z
0(
#7650002
17
b100111000 %
b100111000 -
b100111000 L
b100111000 :
b100111000 C
b10100 V"
0'
1(
b100111000 &
b100111000 3
b100111000 Y
0T
b100 [
#7700000
0!
#7750000
1!
#7750001
b10100 V"
0T
b111 [
b100111000 Z
0(
#7750002
17
b100111100 %
b100111100 -
b100111100 L
b100111100 :
b100111100 C
b10100 V"
0'
1(
b100111100 &
b100111100 3
b100111100 Y
0T
b100 [
#7800000
0!
#7850000
1!
#7850001
b10100 V"
0T
b111 [
b100111100 Z
0(
#7850002
17
b101000000 %
b101000000 -
b101000000 L
b101000000 :
b101000000 C
b10100 V"
0'
1(
b101000000 &
b101000000 3
b101000000 Y
0T
b100 [
#7900000
0!
#7950000
1!
#7950001
b10100 V"
0T
b111 [
b101000000 Z
0(
#7950002
17
b101000100 %
b101000100 -
b101000100 L
b101000100 :
b101000100 C
b10100 V"
0'
1(
b101000100 &
b101000100 3
b101000100 Y
0T
b100 [
#8000000
0!
#8050000
1!
#8050001
b10100 V"
0T
b111 [
b101000100 Z
0(
#8050002
17
b101001000 %
b101001000 -
b101001000 L
b101001000 :
b101001000 C
b10100 V"
0'
1(
b101001000 &
b101001000 3
b101001000 Y
0T
b100 [
#8100000
0!
#8150000
1!
