test.vcd
$date
	Sat Jan  6 16:17:25 2018
$end
$version
	Icarus Verilog
$end
$timescale
	1ps
$end
$scope module cpu_tb $end
$scope module cpu0 $end
$var wire 1 ! clk $end
$var wire 5 " rs2 [4:0] $end
$var wire 5 # rs1 [4:0] $end
$var wire 5 $ rd [4:0] $end
$var wire 32 % opc [31:0] $end
$var wire 32 & npc [31:0] $end
$var wire 1 ' is_busy $end
$var wire 1 ( get_npc $end
$var wire 7 ) _opcode [6:0] $end
$var wire 32 * _imm [31:0] $end
$var wire 7 + _fun7 [6:0] $end
$var wire 3 , _fun3 [2:0] $end
$scope module ic $end
$var wire 1 ! clk $end
$var wire 32 - opc [31:0] $end
$var wire 32 . tmp_instr [31:0] $end
$var wire 5 / rs2 [4:0] $end
$var wire 5 0 rs1 [4:0] $end
$var wire 5 1 rd [4:0] $end
$var wire 7 2 opcode [6:0] $end
$var wire 32 3 npc [31:0] $end
$var wire 1 ' is_busy $end
$var wire 32 4 imm [31:0] $end
$var wire 1 ( get_npc $end
$var wire 7 5 fun7 [6:0] $end
$var wire 3 6 fun3 [2:0] $end
$var wire 1 7 done $end
$var reg 32 8 instr [31:0] $end
$var reg 1 9 is_fetch $end
$var reg 32 : pc [31:0] $end
$scope module decode $end
$var wire 1 ! clk $end
$var wire 32 ; instr [31:0] $end
$var reg 3 < fun3 [2:0] $end
$var reg 7 = fun7 [6:0] $end
$var reg 32 > imm [31:0] $end
$var reg 7 ? opCode [6:0] $end
$var reg 5 @ rd [4:0] $end
$var reg 5 A rs1 [4:0] $end
$var reg 5 B rs2 [4:0] $end
$upscope $end
$scope module instr_mem $end
$var wire 32 C adr [31:0] $end
$var wire 1 ! clk $end
$var wire 32 D in [31:0] $end
$var wire 1 E load $end
$var reg 1 7 done $end
$var reg 32 F out [31:0] $end
$var integer 32 G i [31:0] $end
$upscope $end
$upscope $end
$scope module rg $end
$var wire 3 H _fun3 [2:0] $end
$var wire 7 I _fun7 [6:0] $end
$var wire 32 J _imm [31:0] $end
$var wire 7 K _opcode [6:0] $end
$var wire 1 ! clk $end
$var wire 32 L opc [31:0] $end
$var wire 5 M rd [4:0] $end
$var wire 5 N rs1 [4:0] $end
$var wire 5 O rs2 [4:0] $end
$var wire 32 P mem_out [31:0] $end
$var wire 1 Q mem_done $end
$var wire 1 R mem_busy $end
$var reg 1 ( get_npc $end
$var reg 1 ' is_busy $end
$var reg 32 S mem_adr [31:0] $end
$var reg 1 T mem_deb $end
$var reg 32 U mem_in [31:0] $end
$var reg 1 V mem_load $end
$var reg 3 W mem_siz [2:0] $end
$var reg 1 X mem_start $end
$var reg 32 Y npc [31:0] $end
$var reg 32 Z tmp_pc [31:0] $end
$var integer 32 [ i [31:0] $end
$var integer 32 \ qhead [31:0] $end
$var integer 32 ] qsz [31:0] $end
$var integer 32 ^ qtail [31:0] $end
$scope module alu[0] $end
$var wire 1 _ done $end
$var wire 3 ` fun3 [2:0] $end
$var wire 7 a fun7 [6:0] $end
$var wire 32 b rs1 [31:0] $end
$var wire 32 c rs2 [31:0] $end
$var wire 1 d start $end
$var reg 1 e _done $end
$var reg 1 f busy $end
$var reg 1 g neg $end
$var reg 32 h res [31:0] $end
$var reg 1 i zero $end
$upscope $end
$scope module alu[1] $end
$var wire 1 j done $end
$var wire 3 k fun3 [2:0] $end
$var wire 7 l fun7 [6:0] $end
$var wire 32 m rs1 [31:0] $end
$var wire 32 n rs2 [31:0] $end
$var wire 1 o start $end
$var reg 1 j _done $end
$var reg 1 p busy $end
$var reg 1 q neg $end
$var reg 32 r res [31:0] $end
$var reg 1 s zero $end
$upscope $end
$scope module alu[2] $end
$var wire 1 t done $end
$var wire 3 u fun3 [2:0] $end
$var wire 7 v fun7 [6:0] $end
$var wire 32 w rs1 [31:0] $end
$var wire 32 x rs2 [31:0] $end
$var wire 1 y start $end
$var reg 1 t _done $end
$var reg 1 z busy $end
$var reg 1 { neg $end
$var reg 32 | res [31:0] $end
$var reg 1 } zero $end
$upscope $end
$scope module alu[3] $end
$var wire 1 ~ done $end
$var wire 3 !" fun3 [2:0] $end
$var wire 7 "" fun7 [6:0] $end
$var wire 32 #" rs1 [31:0] $end
$var wire 32 $" rs2 [31:0] $end
$var wire 1 %" start $end
$var reg 1 ~ _done $end
$var reg 1 &" busy $end
$var reg 1 '" neg $end
$var reg 32 (" res [31:0] $end
$var reg 1 )" zero $end
$upscope $end
$scope module alu[4] $end
$var wire 1 *" done $end
$var wire 3 +" fun3 [2:0] $end
$var wire 7 ," fun7 [6:0] $end
$var wire 32 -" rs1 [31:0] $end
$var wire 32 ." rs2 [31:0] $end
$var wire 1 /" start $end
$var reg 1 *" _done $end
$var reg 1 0" busy $end
$var reg 1 1" neg $end
$var reg 32 2" res [31:0] $end
$var reg 1 3" zero $end
$upscope $end
$scope module alu[5] $end
$var wire 1 4" done $end
$var wire 3 5" fun3 [2:0] $end
$var wire 7 6" fun7 [6:0] $end
$var wire 32 7" rs1 [31:0] $end
$var wire 32 8" rs2 [31:0] $end
$var wire 1 9" start $end
$var reg 1 4" _done $end
$var reg 1 :" busy $end
$var reg 1 ;" neg $end
$var reg 32 <" res [31:0] $end
$var reg 1 =" zero $end
$upscope $end
$scope module alu[6] $end
$var wire 1 >" done $end
$var wire 3 ?" fun3 [2:0] $end
$var wire 7 @" fun7 [6:0] $end
$var wire 32 A" rs1 [31:0] $end
$var wire 32 B" rs2 [31:0] $end
$var wire 1 C" start $end
$var reg 1 >" _done $end
$var reg 1 D" busy $end
$var reg 1 E" neg $end
$var reg 32 F" res [31:0] $end
$var reg 1 G" zero $end
$upscope $end
$scope module alu[7] $end
$var wire 1 H" done $end
$var wire 3 I" fun3 [2:0] $end
$var wire 7 J" fun7 [6:0] $end
$var wire 32 K" rs1 [31:0] $end
$var wire 32 L" rs2 [31:0] $end
$var wire 1 M" start $end
$var reg 1 H" _done $end
$var reg 1 N" busy $end
$var reg 1 O" neg $end
$var reg 32 P" res [31:0] $end
$var reg 1 Q" zero $end
$upscope $end
$scope module mem $end
$var wire 32 R" adr [31:0] $end
$var wire 1 T deb $end
$var wire 32 S" in [31:0] $end
$var wire 1 V load $end
$var wire 3 T" siz [2:0] $end
$var wire 1 X start $end
$var reg 1 R busy $end
$var reg 1 Q done $end
$var reg 32 U" out [31:0] $end
$var integer 32 V" i [31:0] $end
$upscope $end
$scope begin init $end
$var integer 32 W" i [31:0] $end
$upscope $end
$scope begin newcmd $end
$var integer 32 X" i [31:0] $end
$var integer 32 Y" r [31:0] $end
$upscope $end
$scope begin tmper $end
$var reg 3 Z" tmp [2:0] $end
$upscope $end
$upscope $end
$upscope $end
$upscope $end
$enddefinitions $end
#0
$dumpvars
bx Z"
bx Y"
bx X"
b100001 W"
b10100 V"
bx U"
b10 T"
b0 S"
b0 R"
xQ"
bx P"
xO"
0N"
0M"
b0 L"
b0 K"
b0 J"
b0 I"
0H"
xG"
bx F"
xE"
0D"
0C"
b0 B"
b0 A"
b0 @"
b0 ?"
0>"
x="
bx <"
x;"
0:"
09"
b0 8"
b0 7"
b0 6"
b0 5"
04"
x3"
bx 2"
x1"
00"
0/"
b0 ."
b0 -"
b0 ,"
b0 +"
0*"
x)"
bx ("
x'"
0&"
0%"
b0 $"
b0 #"
b0 ""
b0 !"
0~
x}
bx |
x{
0z
0y
b0 x
b0 w
b0 v
b0 u
0t
xs
bx r
xq
0p
0o
b0 n
b0 m
b0 l
b0 k
0j
xi
bx h
xg
0f
0e
zd
bz c
bz b
bz a
bz `
0_
b0 ^
b0 ]
b0 \
b100 [
bx Z
bx Y
0X
b10 W
0V
b0 U
0T
b0 S
0R
0Q
bx P
b11 O
b0 N
b1 M
b0 L
b10011 K
b11 J
b0 I
b0 H
b1000000000000 G
b1100000000000010010011 F
0E
b0 D
b0 C
b11 B
b0 A
b1 @
b10011 ?
b11 >
b0 =
b0 <
b1100000000000010010011 ;
b0 :
19
b0 8
17
b0 6
b0 5
b11 4
bx 3
b10011 2
b1 1
b0 0
b11 /
b1100000000000010010011 .
b0 -
b0 ,
b0 +
b11 *
b10011 )
1(
0'
bx &
b0 %
b1 $
b0 #
b11 "
0!
$end
#50000
1j
0q
0s
b11 r
0p
b10100 V"
1o
0T
b111 [
b11 n
b0 X"
b1 Y"
b1100000000000010010011 8
b0 Z
0(
1!
#100000
b1 *
b1 4
b1 >
b1 J
b110011 )
b110011 2
b110011 ?
b110011 K
b1 "
b1 /
b1 B
b1 O
b10 #
b10 0
b10 A
b10 N
b10 $
b10 1
b10 @
b10 M
b100010000000100110011 .
b100010000000100110011 ;
b100010000000100110011 F
17
0j
b100 %
b100 -
b100 L
b100 :
b100 C
b10100 V"
0'
1(
0o
b100 &
b100 3
b100 Y
0T
b100 [
0!
#150000
1j
0p
b10100 V"
1o
0T
b111 [
b0 X"
b1 Y"
b100010000000100110011 8
b100 Z
0(
1!
#200000
b11111111111111111111111111111111 *
b11111111111111111111111111111111 4
b11111111111111111111111111111111 >
b11111111111111111111111111111111 J
b1111111 +
b1111111 5
b1111111 =
b1111111 I
b10011 )
b10011 2
b10011 ?
b10011 K
b11111 "
b11111 /
b11111 B
b11111 O
b1 #
b1 0
b1 A
b1 N
b1 $
b1 1
b1 @
b1 M
b11111111111100001000000010010011 .
b11111111111100001000000010010011 ;
b11111111111100001000000010010011 F
17
0j
b1000 %
b1000 -
b1000 L
b1000 :
b1000 C
b10100 V"
0'
1(
0o
b1000 &
b1000 3
b1000 Y
0T
b100 [
0!
#250000
1j
b100 r
0p
b10100 V"
1o
0T
b111 [
b1111111 l
b11111111111111111111111111111111 n
b11 m
b0 X"
b1 Y"
b11111111111100001000000010010011 8
b1000 Z
0(
1!
#300000
b11111111111111111111111111111000 *
b11111111111111111111111111111000 4
b11111111111111111111111111111000 >
b11111111111111111111111111111000 J
b1 ,
b1 6
b1 <
b1 H
b1100011 )
b1100011 2
b1100011 ?
b1100011 K
b1 "
b1 /
b1 B
b1 O
b0 #
b0 0
b0 A
b0 N
b11000 $
b11000 1
b11000 @
b11000 M
b11111110000100000001110001100011 .
b11111110000100000001110001100011 ;
b11111110000100000001110001100011 F
17
0j
b1100 %
b1100 -
b1100 L
b1100 :
b1100 C
b10100 V"
0'
1(
0o
b1100 &
b1100 3
b1100 Y
0T
b100 [
0!
#350000
1j
1q
b11111111111111111111111111111100 r
0p
b10100 V"
1o
b100000 l
0T
b111 [
b100 n
b0 m
b0 X"
b1 Y"
09
b11111110000100000001110001100011 8
b1100 Z
0(
1!
#400000
b1 *
b1 4
b1 >
b1 J
b0 +
b0 5
b0 =
b0 I
b0 ,
b0 6
b0 <
b0 H
b110011 )
b110011 2
b110011 ?
b110011 K
b10 #
b10 0
b10 A
b10 N
b10 $
b10 1
b10 @
b10 M
b100010000000100110011 .
b100010000000100110011 ;
b100010000000100110011 F
17
0j
b100 %
b100 -
b100 L
b100 :
b100 C
b10100 V"
0'
1(
0o
b100 &
b100 3
b100 Y
0T
b100 [
0!
#450000
1j
0q
b111 r
0p
b10100 V"
1o
0T
b111 [
b0 l
b11 m
b0 X"
b1 Y"
b0 8
b100 Z
0(
1!
#500000
b11111111111111111111111111111111 *
b11111111111111111111111111111111 4
b11111111111111111111111111111111 >
b11111111111111111111111111111111 J
b1111111 +
b1111111 5
b1111111 =
b1111111 I
b10011 )
b10011 2
b10011 ?
b10011 K
b11111 "
b11111 /
b11111 B
b11111 O
b1 #
b1 0
b1 A
b1 N
b1 $
b1 1
b1 @
b1 M
b11111111111100001000000010010011 .
b11111111111100001000000010010011 ;
b11111111111100001000000010010011 F
17
0j
b1000 %
b1000 -
b1000 L
b1000 :
b1000 C
b10100 V"
0'
1(
0o
b1000 &
b1000 3
b1000 Y
0T
b100 [
0!
#550000
1j
b101 r
0p
b10100 V"
1o
0T
b111 [
b1111111 l
b11111111111111111111111111111111 n
b100 m
b0 X"
b1 Y"
b1000 Z
0(
1!
#600000
b11111111111111111111111111111000 *
b11111111111111111111111111111000 4
b11111111111111111111111111111000 >
b11111111111111111111111111111000 J
b1 ,
b1 6
b1 <
b1 H
b1100011 )
b1100011 2
b1100011 ?
b1100011 K
b1 "
b1 /
b1 B
b1 O
b0 #
b0 0
b0 A
b0 N
b11000 $
b11000 1
b11000 @
b11000 M
b11111110000100000001110001100011 .
b11111110000100000001110001100011 ;
b11111110000100000001110001100011 F
17
0j
b1100 %
b1100 -
b1100 L
b1100 :
b1100 C
b10100 V"
0'
1(
0o
b1100 &
b1100 3
b1100 Y
0T
b100 [
0!
#650000
1j
1q
b11111111111111111111111111111011 r
0p
b10100 V"
1o
b100000 l
0T
b111 [
b101 n
b0 m
b0 X"
b1 Y"
b1100 Z
0(
1!
#700000
b1 *
b1 4
b1 >
b1 J
b0 +
b0 5
b0 =
b0 I
b0 ,
b0 6
b0 <
b0 H
b110011 )
b110011 2
b110011 ?
b110011 K
b10 #
b10 0
b10 A
b10 N
b10 $
b10 1
b10 @
b10 M
b100010000000100110011 .
b100010000000100110011 ;
b100010000000100110011 F
17
0j
b100 %
b100 -
b100 L
b100 :
b100 C
b10100 V"
0'
1(
0o
b100 &
b100 3
b100 Y
0T
b100 [
0!
#750000
1j
0q
b1100 r
0p
b10100 V"
1o
0T
b111 [
b0 l
b111 m
b0 X"
b1 Y"
b100 Z
0(
1!
#800000
b11111111111111111111111111111111 *
b11111111111111111111111111111111 4
b11111111111111111111111111111111 >
b11111111111111111111111111111111 J
b1111111 +
b1111111 5
b1111111 =
b1111111 I
b10011 )
b10011 2
b10011 ?
b10011 K
b11111 "
b11111 /
b11111 B
b11111 O
b1 #
b1 0
b1 A
b1 N
b1 $
b1 1
b1 @
b1 M
b11111111111100001000000010010011 .
b11111111111100001000000010010011 ;
b11111111111100001000000010010011 F
17
0j
b1000 %
b1000 -
b1000 L
b1000 :
b1000 C
b10100 V"
0'
1(
0o
b1000 &
b1000 3
b1000 Y
0T
b100 [
0!
#850000
1j
b110 r
0p
b10100 V"
1o
0T
b111 [
b1111111 l
b11111111111111111111111111111111 n
b101 m
b0 X"
b1 Y"
b1000 Z
0(
1!
#900000
b11111111111111111111111111111000 *
b11111111111111111111111111111000 4
b11111111111111111111111111111000 >
b11111111111111111111111111111000 J
b1 ,
b1 6
b1 <
b1 H
b1100011 )
b1100011 2
b1100011 ?
b1100011 K
b1 "
b1 /
b1 B
b1 O
b0 #
b0 0
b0 A
b0 N
b11000 $
b11000 1
b11000 @
b11000 M
b11111110000100000001110001100011 .
b11111110000100000001110001100011 ;
b11111110000100000001110001100011 F
17
0j
b1100 %
b1100 -
b1100 L
b1100 :
b1100 C
b10100 V"
0'
1(
0o
b1100 &
b1100 3
b1100 Y
0T
b100 [
0!
#950000
1j
1q
b11111111111111111111111111111010 r
0p
b10100 V"
1o
b100000 l
0T
b111 [
b110 n
b0 m
b0 X"
b1 Y"
b1100 Z
0(
1!
#1000000
b1 *
b1 4
b1 >
b1 J
b0 +
b0 5
b0 =
b0 I
b0 ,
b0 6
b0 <
b0 H
b110011 )
b110011 2
b110011 ?
b110011 K
b10 #
b10 0
b10 A
b10 N
b10 $
b10 1
b10 @
b10 M
b100010000000100110011 .
b100010000000100110011 ;
b100010000000100110011 F
17
0j
b100 %
b100 -
b100 L
b100 :
b100 C
b10100 V"
0'
1(
0o
b100 &
b100 3
b100 Y
0T
b100 [
0!
#1050000
1j
0q
b10010 r
0p
b10100 V"
1o
0T
b111 [
b0 l
b1100 m
b0 X"
b1 Y"
b100 Z
0(
1!
#1100000
b11111111111111111111111111111111 *
b11111111111111111111111111111111 4
b11111111111111111111111111111111 >
b11111111111111111111111111111111 J
b1111111 +
b1111111 5
b1111111 =
b1111111 I
b10011 )
b10011 2
b10011 ?
b10011 K
b11111 "
b11111 /
b11111 B
b11111 O
b1 #
b1 0
b1 A
b1 N
b1 $
b1 1
b1 @
b1 M
b11111111111100001000000010010011 .
b11111111111100001000000010010011 ;
b11111111111100001000000010010011 F
17
0j
b1000 %
b1000 -
b1000 L
b1000 :
b1000 C
b10100 V"
0'
1(
0o
b1000 &
b1000 3
b1000 Y
0T
b100 [
0!
#1150000
1j
b111 r
0p
b10100 V"
1o
0T
b111 [
b1111111 l
b11111111111111111111111111111111 n
b110 m
b0 X"
b1 Y"
b1000 Z
0(
1!
#1200000
b11111111111111111111111111111000 *
b11111111111111111111111111111000 4
b11111111111111111111111111111000 >
b11111111111111111111111111111000 J
b1 ,
b1 6
b1 <
b1 H
b1100011 )
b1100011 2
b1100011 ?
b1100011 K
b1 "
b1 /
b1 B
b1 O
b0 #
b0 0
b0 A
b0 N
b11000 $
b11000 1
b11000 @
b11000 M
b11111110000100000001110001100011 .
b11111110000100000001110001100011 ;
b11111110000100000001110001100011 F
17
0j
b1100 %
b1100 -
b1100 L
b1100 :
b1100 C
b10100 V"
0'
1(
0o
b1100 &
b1100 3
b1100 Y
0T
b100 [
0!
#1250000
1j
1q
b11111111111111111111111111111001 r
0p
b10100 V"
1o
b100000 l
0T
b111 [
b111 n
b0 m
b0 X"
b1 Y"
b1100 Z
0(
1!
#1300000
b1 *
b1 4
b1 >
b1 J
b0 +
b0 5
b0 =
b0 I
b0 ,
b0 6
b0 <
b0 H
b110011 )
b110011 2
b110011 ?
b110011 K
b10 #
b10 0
b10 A
b10 N
b10 $
b10 1
b10 @
b10 M
b100010000000100110011 .
b100010000000100110011 ;
b100010000000100110011 F
17
0j
b100 %
b100 -
b100 L
b100 :
b100 C
b10100 V"
0'
1(
0o
b100 &
b100 3
b100 Y
0T
b100 [
0!
#1350000
1j
0q
b11001 r
0p
b10100 V"
1o
0T
b111 [
b0 l
b10010 m
b0 X"
b1 Y"
b100 Z
0(
1!
#1400000
b11111111111111111111111111111111 *
b11111111111111111111111111111111 4
b11111111111111111111111111111111 >
b11111111111111111111111111111111 J
b1111111 +
b1111111 5
b1111111 =
b1111111 I
b10011 )
b10011 2
b10011 ?
b10011 K
b11111 "
b11111 /
b11111 B
b11111 O
b1 #
b1 0
b1 A
b1 N
b1 $
b1 1
b1 @
b1 M
b11111111111100001000000010010011 .
b11111111111100001000000010010011 ;
b11111111111100001000000010010011 F
17
0j
b1000 %
b1000 -
b1000 L
b1000 :
b1000 C
b10100 V"
0'
1(
0o
b1000 &
b1000 3
b1000 Y
0T
b100 [
0!
#1450000
1j
b1000 r
0p
b10100 V"
1o
0T
b111 [
b1111111 l
b11111111111111111111111111111111 n
b111 m
b0 X"
b1 Y"
b1000 Z
0(
1!
#1500000
b11111111111111111111111111111000 *
b11111111111111111111111111111000 4
b11111111111111111111111111111000 >
b11111111111111111111111111111000 J
b1 ,
b1 6
b1 <
b1 H
b1100011 )
b1100011 2
b1100011 ?
b1100011 K
b1 "
b1 /
b1 B
b1 O
b0 #
b0 0
b0 A
b0 N
b11000 $
b11000 1
b11000 @
b11000 M
b11111110000100000001110001100011 .
b11111110000100000001110001100011 ;
b11111110000100000001110001100011 F
17
0j
b1100 %
b1100 -
b1100 L
b1100 :
b1100 C
b10100 V"
0'
1(
0o
b1100 &
b1100 3
b1100 Y
0T
b100 [
0!
#1550000
1j
1q
b11111111111111111111111111111000 r
0p
b10100 V"
1o
b100000 l
0T
b111 [
b1000 n
b0 m
b0 X"
b1 Y"
b1100 Z
0(
1!
#1600000
b1 *
b1 4
b1 >
b1 J
b0 +
b0 5
b0 =
b0 I
b0 ,
b0 6
b0 <
b0 H
b110011 )
b110011 2
b110011 ?
b110011 K
b10 #
b10 0
b10 A
b10 N
b10 $
b10 1
b10 @
b10 M
b100010000000100110011 .
b100010000000100110011 ;
b100010000000100110011 F
17
0j
b100 %
b100 -
b100 L
b100 :
b100 C
b10100 V"
0'
1(
0o
b100 &
b100 3
b100 Y
0T
b100 [
0!
#1650000
1j
0q
b100001 r
0p
b10100 V"
1o
0T
b111 [
b0 l
b11001 m
b0 X"
b1 Y"
b100 Z
0(
1!
#1700000
b11111111111111111111111111111111 *
b11111111111111111111111111111111 4
b11111111111111111111111111111111 >
b11111111111111111111111111111111 J
b1111111 +
b1111111 5
b1111111 =
b1111111 I
b10011 )
b10011 2
b10011 ?
b10011 K
b11111 "
b11111 /
b11111 B
b11111 O
b1 #
b1 0
b1 A
b1 N
b1 $
b1 1
b1 @
b1 M
b11111111111100001000000010010011 .
b11111111111100001000000010010011 ;
b11111111111100001000000010010011 F
17
0j
b1000 %
b1000 -
b1000 L
b1000 :
b1000 C
b10100 V"
0'
1(
0o
b1000 &
b1000 3
b1000 Y
0T
b100 [
0!
#1750000
1j
b1001 r
0p
b10100 V"
1o
0T
b111 [
b1111111 l
b11111111111111111111111111111111 n
b1000 m
b0 X"
b1 Y"
b1000 Z
0(
1!
#1800000
b11111111111111111111111111111000 *
b11111111111111111111111111111000 4
b11111111111111111111111111111000 >
b11111111111111111111111111111000 J
b1 ,
b1 6
b1 <
b1 H
b1100011 )
b1100011 2
b1100011 ?
b1100011 K
b1 "
b1 /
b1 B
b1 O
b0 #
b0 0
b0 A
b0 N
b11000 $
b11000 1
b11000 @
b11000 M
b11111110000100000001110001100011 .
b11111110000100000001110001100011 ;
b11111110000100000001110001100011 F
17
0j
b1100 %
b1100 -
b1100 L
b1100 :
b1100 C
b10100 V"
0'
1(
0o
b1100 &
b1100 3
b1100 Y
0T
b100 [
0!
#1850000
1j
1q
b11111111111111111111111111110111 r
0p
b10100 V"
1o
b100000 l
0T
b111 [
b1001 n
b0 m
b0 X"
b1 Y"
b1100 Z
0(
1!
#1900000
b1 *
b1 4
b1 >
b1 J
b0 +
b0 5
b0 =
b0 I
b0 ,
b0 6
b0 <
b0 H
b110011 )
b110011 2
b110011 ?
b110011 K
b10 #
b10 0
b10 A
b10 N
b10 $
b10 1
b10 @
b10 M
b100010000000100110011 .
b100010000000100110011 ;
b100010000000100110011 F
17
0j
b100 %
b100 -
b100 L
b100 :
b100 C
b10100 V"
0'
1(
0o
b100 &
b100 3
b100 Y
0T
b100 [
0!
#1950000
1j
0q
b101010 r
0p
b10100 V"
1o
0T
b111 [
b0 l
b100001 m
b0 X"
b1 Y"
b100 Z
0(
1!
#2000000
b11111111111111111111111111111111 *
b11111111111111111111111111111111 4
b11111111111111111111111111111111 >
b11111111111111111111111111111111 J
b1111111 +
b1111111 5
b1111111 =
b1111111 I
b10011 )
b10011 2
b10011 ?
b10011 K
b11111 "
b11111 /
b11111 B
b11111 O
b1 #
b1 0
b1 A
b1 N
b1 $
b1 1
b1 @
b1 M
b11111111111100001000000010010011 .
b11111111111100001000000010010011 ;
b11111111111100001000000010010011 F
17
0j
b1000 %
b1000 -
b1000 L
b1000 :
b1000 C
b10100 V"
0'
1(
0o
b1000 &
b1000 3
b1000 Y
0T
b100 [
0!
#2050000
1j
b1010 r
0p
b10100 V"
1o
0T
b111 [
b1111111 l
b11111111111111111111111111111111 n
b1001 m
b0 X"
b1 Y"
b1000 Z
0(
1!
#2100000
b11111111111111111111111111111000 *
b11111111111111111111111111111000 4
b11111111111111111111111111111000 >
b11111111111111111111111111111000 J
b1 ,
b1 6
b1 <
b1 H
b1100011 )
b1100011 2
b1100011 ?
b1100011 K
b1 "
b1 /
b1 B
b1 O
b0 #
b0 0
b0 A
b0 N
b11000 $
b11000 1
b11000 @
b11000 M
b11111110000100000001110001100011 .
b11111110000100000001110001100011 ;
b11111110000100000001110001100011 F
17
0j
b1100 %
b1100 -
b1100 L
b1100 :
b1100 C
b10100 V"
0'
1(
0o
b1100 &
b1100 3
b1100 Y
0T
b100 [
0!
#2150000
1j
1q
b11111111111111111111111111110110 r
0p
b10100 V"
1o
b100000 l
0T
b111 [
b1010 n
b0 m
b0 X"
b1 Y"
b1100 Z
0(
1!
#2200000
b1 *
b1 4
b1 >
b1 J
b0 +
b0 5
b0 =
b0 I
b0 ,
b0 6
b0 <
b0 H
b110011 )
b110011 2
b110011 ?
b110011 K
b10 #
b10 0
b10 A
b10 N
b10 $
b10 1
b10 @
b10 M
b100010000000100110011 .
b100010000000100110011 ;
b100010000000100110011 F
17
0j
b100 %
b100 -
b100 L
b100 :
b100 C
b10100 V"
0'
1(
0o
b100 &
b100 3
b100 Y
0T
b100 [
0!
#2250000
1j
0q
b110100 r
0p
b10100 V"
1o
0T
b111 [
b0 l
b101010 m
b0 X"
b1 Y"
b100 Z
0(
1!
#2300000
b11111111111111111111111111111111 *
b11111111111111111111111111111111 4
b11111111111111111111111111111111 >
b11111111111111111111111111111111 J
b1111111 +
b1111111 5
b1111111 =
b1111111 I
b10011 )
b10011 2
b10011 ?
b10011 K
b11111 "
b11111 /
b11111 B
b11111 O
b1 #
b1 0
b1 A
b1 N
b1 $
b1 1
b1 @
b1 M
b11111111111100001000000010010011 .
b11111111111100001000000010010011 ;
b11111111111100001000000010010011 F
17
0j
b1000 %
b1000 -
b1000 L
b1000 :
b1000 C
b10100 V"
0'
1(
0o
b1000 &
b1000 3
b1000 Y
0T
b100 [
0!
#2350000
1j
b1011 r
0p
b10100 V"
1o
0T
b111 [
b1111111 l
b11111111111111111111111111111111 n
b1010 m
b0 X"
b1 Y"
b1000 Z
0(
1!
#2400000
b11111111111111111111111111111000 *
b11111111111111111111111111111000 4
b11111111111111111111111111111000 >
b11111111111111111111111111111000 J
b1 ,
b1 6
b1 <
b1 H
b1100011 )
b1100011 2
b1100011 ?
b1100011 K
b1 "
b1 /
b1 B
b1 O
b0 #
b0 0
b0 A
b0 N
b11000 $
b11000 1
b11000 @
b11000 M
b11111110000100000001110001100011 .
b11111110000100000001110001100011 ;
b11111110000100000001110001100011 F
17
0j
b1100 %
b1100 -
b1100 L
b1100 :
b1100 C
b10100 V"
0'
1(
0o
b1100 &
b1100 3
b1100 Y
0T
b100 [
0!
#2450000
1j
1q
b11111111111111111111111111110101 r
0p
b10100 V"
1o
b100000 l
0T
b111 [
b1011 n
b0 m
b0 X"
b1 Y"
b1100 Z
0(
1!
#2500000
b1 *
b1 4
b1 >
b1 J
b0 +
b0 5
b0 =
b0 I
b0 ,
b0 6
b0 <
b0 H
b110011 )
b110011 2
b110011 ?
b110011 K
b10 #
b10 0
b10 A
b10 N
b10 $
b10 1
b10 @
b10 M
b100010000000100110011 .
b100010000000100110011 ;
b100010000000100110011 F
17
0j
b100 %
b100 -
b100 L
b100 :
b100 C
b10100 V"
0'
1(
0o
b100 &
b100 3
b100 Y
0T
b100 [
0!
#2550000
1j
0q
b111111 r
0p
b10100 V"
1o
0T
b111 [
b0 l
b110100 m
b0 X"
b1 Y"
b100 Z
0(
1!
#2600000
b11111111111111111111111111111111 *
b11111111111111111111111111111111 4
b11111111111111111111111111111111 >
b11111111111111111111111111111111 J
b1111111 +
b1111111 5
b1111111 =
b1111111 I
b10011 )
b10011 2
b10011 ?
b10011 K
b11111 "
b11111 /
b11111 B
b11111 O
b1 #
b1 0
b1 A
b1 N
b1 $
b1 1
b1 @
b1 M
b11111111111100001000000010010011 .
b11111111111100001000000010010011 ;
b11111111111100001000000010010011 F
17
0j
b1000 %
b1000 -
b1000 L
b1000 :
b1000 C
b10100 V"
0'
1(
0o
b1000 &
b1000 3
b1000 Y
0T
b100 [
0!
#2650000
1j
b1100 r
0p
b10100 V"
1o
0T
b111 [
b1111111 l
b11111111111111111111111111111111 n
b1011 m
b0 X"
b1 Y"
b1000 Z
0(
1!
#2700000
b11111111111111111111111111111000 *
b11111111111111111111111111111000 4
b11111111111111111111111111111000 >
b11111111111111111111111111111000 J
b1 ,
b1 6
b1 <
b1 H
b1100011 )
b1100011 2
b1100011 ?
b1100011 K
b1 "
b1 /
b1 B
b1 O
b0 #
b0 0
b0 A
b0 N
b11000 $
b11000 1
b11000 @
b11000 M
b11111110000100000001110001100011 .
b11111110000100000001110001100011 ;
b11111110000100000001110001100011 F
17
0j
b1100 %
b1100 -
b1100 L
b1100 :
b1100 C
b10100 V"
0'
1(
0o
b1100 &
b1100 3
b1100 Y
0T
b100 [
0!
#2750000
1j
1q
b11111111111111111111111111110100 r
0p
b10100 V"
1o
b100000 l
0T
b111 [
b1100 n
b0 m
b0 X"
b1 Y"
b1100 Z
0(
1!
#2800000
b1 *
b1 4
b1 >
b1 J
b0 +
b0 5
b0 =
b0 I
b0 ,
b0 6
b0 <
b0 H
b110011 )
b110011 2
b110011 ?
b110011 K
b10 #
b10 0
b10 A
b10 N
b10 $
b10 1
b10 @
b10 M
b100010000000100110011 .
b100010000000100110011 ;
b100010000000100110011 F
17
0j
b100 %
b100 -
b100 L
b100 :
b100 C
b10100 V"
0'
1(
0o
b100 &
b100 3
b100 Y
0T
b100 [
0!
#2850000
1j
0q
b1001011 r
0p
b10100 V"
1o
0T
b111 [
b0 l
b111111 m
b0 X"
b1 Y"
b100 Z
0(
1!
#2900000
b11111111111111111111111111111111 *
b11111111111111111111111111111111 4
b11111111111111111111111111111111 >
b11111111111111111111111111111111 J
b1111111 +
b1111111 5
b1111111 =
b1111111 I
b10011 )
b10011 2
b10011 ?
b10011 K
b11111 "
b11111 /
b11111 B
b11111 O
b1 #
b1 0
b1 A
b1 N
b1 $
b1 1
b1 @
b1 M
b11111111111100001000000010010011 .
b11111111111100001000000010010011 ;
b11111111111100001000000010010011 F
17
0j
b1000 %
b1000 -
b1000 L
b1000 :
b1000 C
b10100 V"
0'
1(
0o
b1000 &
b1000 3
b1000 Y
0T
b100 [
0!
#2950000
1j
b1101 r
0p
b10100 V"
1o
0T
b111 [
b1111111 l
b11111111111111111111111111111111 n
b1100 m
b0 X"
b1 Y"
b1000 Z
0(
1!
