test.vcd
$date
	Thu Dec 21 22:26:32 2017
$end
$version
	Icarus Verilog
$end
$timescale
	1ps
$end
$scope module cpu_tb $end
$scope module cpu0 $end
$var wire 1 ! clk $end
$var wire 5 " rs2 [4:0] $end
$var wire 5 # rs1 [4:0] $end
$var wire 5 $ rd [4:0] $end
$var wire 32 % opc [31:0] $end
$var wire 32 & npc [31:0] $end
$var wire 1 ' is_busy $end
$var wire 1 ( get_npc $end
$var wire 7 ) _opcode [6:0] $end
$var wire 32 * _imm [31:0] $end
$var wire 7 + _fun7 [6:0] $end
$var wire 3 , _fun3 [2:0] $end
$scope module ic $end
$var wire 1 ! clk $end
$var wire 32 - opc [31:0] $end
$var wire 32 . tmp_instr [31:0] $end
$var wire 5 / rs2 [4:0] $end
$var wire 5 0 rs1 [4:0] $end
$var wire 5 1 rd [4:0] $end
$var wire 7 2 opcode [6:0] $end
$var wire 32 3 npc [31:0] $end
$var wire 1 ' is_busy $end
$var wire 32 4 imm [31:0] $end
$var wire 1 ( get_npc $end
$var wire 7 5 fun7 [6:0] $end
$var wire 3 6 fun3 [2:0] $end
$var wire 1 7 done $end
$var reg 32 8 instr [31:0] $end
$var reg 1 9 is_fetch $end
$var reg 32 : pc [31:0] $end
$scope module decode $end
$var wire 1 ! clk $end
$var wire 32 ; instr [31:0] $end
$var reg 3 < fun3 [2:0] $end
$var reg 7 = fun7 [6:0] $end
$var reg 32 > imm [31:0] $end
$var reg 7 ? opCode [6:0] $end
$var reg 5 @ rd [4:0] $end
$var reg 5 A rs1 [4:0] $end
$var reg 5 B rs2 [4:0] $end
$upscope $end
$scope module instr_mem $end
$var wire 32 C adr [31:0] $end
$var wire 1 ! clk $end
$var wire 32 D in [31:0] $end
$var wire 1 E load $end
$var reg 1 7 done $end
$var reg 32 F out [31:0] $end
$var integer 32 G i [31:0] $end
$upscope $end
$upscope $end
$scope module rg $end
$var wire 3 H _fun3 [2:0] $end
$var wire 7 I _fun7 [6:0] $end
$var wire 32 J _imm [31:0] $end
$var wire 7 K _opcode [6:0] $end
$var wire 1 ! clk $end
$var wire 32 L opc [31:0] $end
$var wire 5 M rd [4:0] $end
$var wire 5 N rs1 [4:0] $end
$var wire 5 O rs2 [4:0] $end
$var wire 32 P mem_out [31:0] $end
$var wire 1 Q mem_done $end
$var wire 1 R mem_busy $end
$var reg 1 ( get_npc $end
$var reg 1 ' is_busy $end
$var reg 32 S mem_adr [31:0] $end
$var reg 1 T mem_deb $end
$var reg 32 U mem_in [31:0] $end
$var reg 1 V mem_load $end
$var reg 3 W mem_siz [2:0] $end
$var reg 1 X mem_start $end
$var reg 32 Y npc [31:0] $end
$var reg 32 Z tmp_pc [31:0] $end
$var integer 32 [ i [31:0] $end
$var integer 32 \ qhead [31:0] $end
$var integer 32 ] qsz [31:0] $end
$var integer 32 ^ qtail [31:0] $end
$scope module alu[0] $end
$var wire 1 _ done $end
$var wire 3 ` fun3 [2:0] $end
$var wire 7 a fun7 [6:0] $end
$var wire 32 b rs1 [31:0] $end
$var wire 32 c rs2 [31:0] $end
$var wire 1 d start $end
$var reg 1 e _done $end
$var reg 1 f busy $end
$var reg 1 g neg $end
$var reg 32 h res [31:0] $end
$var reg 1 i zero $end
$upscope $end
$scope module alu[1] $end
$var wire 1 j done $end
$var wire 3 k fun3 [2:0] $end
$var wire 7 l fun7 [6:0] $end
$var wire 32 m rs1 [31:0] $end
$var wire 32 n rs2 [31:0] $end
$var wire 1 o start $end
$var reg 1 j _done $end
$var reg 1 p busy $end
$var reg 1 q neg $end
$var reg 32 r res [31:0] $end
$var reg 1 s zero $end
$upscope $end
$scope module alu[2] $end
$var wire 1 t done $end
$var wire 3 u fun3 [2:0] $end
$var wire 7 v fun7 [6:0] $end
$var wire 32 w rs1 [31:0] $end
$var wire 32 x rs2 [31:0] $end
$var wire 1 y start $end
$var reg 1 t _done $end
$var reg 1 z busy $end
$var reg 1 { neg $end
$var reg 32 | res [31:0] $end
$var reg 1 } zero $end
$upscope $end
$scope module alu[3] $end
$var wire 1 ~ done $end
$var wire 3 !" fun3 [2:0] $end
$var wire 7 "" fun7 [6:0] $end
$var wire 32 #" rs1 [31:0] $end
$var wire 32 $" rs2 [31:0] $end
$var wire 1 %" start $end
$var reg 1 ~ _done $end
$var reg 1 &" busy $end
$var reg 1 '" neg $end
$var reg 32 (" res [31:0] $end
$var reg 1 )" zero $end
$upscope $end
$scope module alu[4] $end
$var wire 1 *" done $end
$var wire 3 +" fun3 [2:0] $end
$var wire 7 ," fun7 [6:0] $end
$var wire 32 -" rs1 [31:0] $end
$var wire 32 ." rs2 [31:0] $end
$var wire 1 /" start $end
$var reg 1 *" _done $end
$var reg 1 0" busy $end
$var reg 1 1" neg $end
$var reg 32 2" res [31:0] $end
$var reg 1 3" zero $end
$upscope $end
$scope module alu[5] $end
$var wire 1 4" done $end
$var wire 3 5" fun3 [2:0] $end
$var wire 7 6" fun7 [6:0] $end
$var wire 32 7" rs1 [31:0] $end
$var wire 32 8" rs2 [31:0] $end
$var wire 1 9" start $end
$var reg 1 4" _done $end
$var reg 1 :" busy $end
$var reg 1 ;" neg $end
$var reg 32 <" res [31:0] $end
$var reg 1 =" zero $end
$upscope $end
$scope module alu[6] $end
$var wire 1 >" done $end
$var wire 3 ?" fun3 [2:0] $end
$var wire 7 @" fun7 [6:0] $end
$var wire 32 A" rs1 [31:0] $end
$var wire 32 B" rs2 [31:0] $end
$var wire 1 C" start $end
$var reg 1 >" _done $end
$var reg 1 D" busy $end
$var reg 1 E" neg $end
$var reg 32 F" res [31:0] $end
$var reg 1 G" zero $end
$upscope $end
$scope module alu[7] $end
$var wire 1 H" done $end
$var wire 3 I" fun3 [2:0] $end
$var wire 7 J" fun7 [6:0] $end
$var wire 32 K" rs1 [31:0] $end
$var wire 32 L" rs2 [31:0] $end
$var wire 1 M" start $end
$var reg 1 H" _done $end
$var reg 1 N" busy $end
$var reg 1 O" neg $end
$var reg 32 P" res [31:0] $end
$var reg 1 Q" zero $end
$upscope $end
$scope module mem $end
$var wire 32 R" adr [31:0] $end
$var wire 1 T deb $end
$var wire 32 S" in [31:0] $end
$var wire 1 V load $end
$var wire 3 T" siz [2:0] $end
$var wire 1 X start $end
$var reg 1 R busy $end
$var reg 1 Q done $end
$var reg 32 U" out [31:0] $end
$var integer 32 V" i [31:0] $end
$upscope $end
$scope begin init $end
$var integer 32 W" i [31:0] $end
$upscope $end
$scope begin newcmd $end
$var integer 32 X" i [31:0] $end
$var integer 32 Y" r [31:0] $end
$upscope $end
$scope begin tmper $end
$var reg 3 Z" tmp [2:0] $end
$upscope $end
$upscope $end
$upscope $end
$upscope $end
$enddefinitions $end
#0
$dumpvars
bx Z"
bx Y"
bx X"
b100001 W"
b1000000000000 V"
bx U"
b10 T"
b0 S"
b0 R"
xQ"
bx P"
xO"
0N"
0M"
b0 L"
b0 K"
b0 J"
b0 I"
0H"
xG"
bx F"
xE"
0D"
0C"
b0 B"
b0 A"
b0 @"
b0 ?"
0>"
x="
bx <"
x;"
0:"
09"
b0 8"
b0 7"
b0 6"
b0 5"
04"
x3"
bx 2"
x1"
00"
0/"
b0 ."
b0 -"
b0 ,"
b0 +"
0*"
x)"
bx ("
x'"
0&"
0%"
b0 $"
b0 #"
b0 ""
b0 !"
0~
x}
bx |
x{
0z
0y
b0 x
b0 w
b0 v
b0 u
0t
xs
bx r
xq
0p
0o
b0 n
b0 m
b0 l
b0 k
0j
xi
bx h
xg
0f
0e
zd
bz c
bz b
bz a
bz `
0_
b0 ^
b0 ]
b0 \
bx [
bx Z
bx Y
0X
b10 W
0V
b0 U
xT
b0 S
0R
0Q
bx P
b1000 O
b0 N
b101 M
b0 L
b10011 K
b1000 J
b0 I
b0 H
b1000000000000 G
b100000000000001010010011 F
0E
b0 D
b0 C
b1000 B
b0 A
b101 @
b10011 ?
b1000 >
b0 =
b0 <
b100000000000001010010011 ;
b0 :
19
b0 8
17
b0 6
b0 5
b1000 4
bx 3
b10011 2
b101 1
b0 0
b1000 /
b100000000000001010010011 .
b0 -
b0 ,
b0 +
b1000 *
b10011 )
x(
x'
bx &
b0 %
b101 $
b0 #
b1000 "
0!
$end
#50000
b10011 8
1!
#50001
1j
0q
0s
b1000 r
0p
b10100 V"
1o
0T
b111 [
b1000 n
b0 X"
b1 Y"
b0 Z
0(
#50002
b111 *
b111 4
b111 >
b111 J
b111 "
b111 /
b111 B
b111 O
b1 #
b1 0
b1 A
b1 N
b1 $
b1 1
b1 @
b1 M
b11100001000000010010011 .
b11100001000000010010011 ;
b11100001000000010010011 F
17
0j
b100 %
b100 -
b100 L
b100 :
b100 C
b10100 V"
0'
1(
0o
b100 &
b100 3
b100 Y
0T
b100 [
#100000
0!
#150000
b11100001000000010010011 8
1!
#150001
1j
b111 r
0p
b10100 V"
1o
0T
b111 [
b111 n
b0 X"
b1 Y"
b100 Z
0(
#150002
b100 *
b100 4
b100 >
b100 J
b10 ,
b10 6
b10 <
b10 H
b100011 )
b100011 2
b100011 ?
b100011 K
b1 "
b1 /
b1 B
b1 O
b0 #
b0 0
b0 A
b0 N
b100 $
b100 1
b100 @
b100 M
b100000010001000100011 .
b100000010001000100011 ;
b100000010001000100011 F
17
0j
b1000 %
b1000 -
b1000 L
b1000 :
b1000 C
b10100 V"
0'
1(
0o
b1000 &
b1000 3
b1000 Y
0T
b100 [
#200000
0!
#250000
b100000010001000100011 8
1!
#250001
1j
b100 r
0p
b10100 V"
1o
b100 n
0T
b111 [
b10 l
b1 ^
b0 X"
b1 Y"
b1000 Z
0(
#250002
b0 *
b0 4
b0 >
b0 J
b0 $
b0 1
b0 @
b0 M
b100000010000000100011 .
b100000010000000100011 ;
b100000010000000100011 F
17
b1100 %
b1100 -
b1100 L
b1100 :
b1100 C
b10100 V"
0'
1(
b1100 &
b1100 3
b1100 Y
0T
b100 [
#300000
0!
#350000
b100000010000000100011 8
1!
#350001
b0 P
b0 U"
1Q
0R
b10100 V"
1X
1V
b111 U
b111 S"
b100 S
b100 R"
0T
b111 [
b111 x
b10 v
b10 ^
b0 X"
b10 Y"
b1100 Z
0(
#350002
b100 *
b100 4
b100 >
b100 J
b11 )
b11 2
b11 ?
b11 K
b100 "
b100 /
b100 B
b100 O
b10 $
b10 1
b10 @
b10 M
b10000000010000100000011 .
b10000000010000100000011 ;
b10000000010000100000011 F
17
0j
b10000 %
b10000 -
b10000 L
b10000 :
b10000 C
b10100 V"
0X
0'
1(
b1 \
0o
b10000 &
b10000 3
b10000 Y
0T
b100 [
#400000
0!
#450000
b10000000010000100000011 8
1!
#450001
1t
0{
1}
b0 |
0z
b10100 V"
1y
b0 x
0T
b111 [
b11 ^
b0 X"
b1 Y"
b10000 Z
0(
#450002
b1 *
b1 4
b1 >
b1 J
b0 ,
b0 6
b0 <
b0 H
b110011 )
b110011 2
b110011 ?
b110011 K
b1 "
b1 /
b1 B
b1 O
b1 #
b1 0
b1 A
b1 N
b100001000000100110011 .
b100001000000100110011 ;
b100001000000100110011 F
17
b10100 %
b10100 -
b10100 L
b10100 :
b10100 C
b10100 V"
0'
1(
b10100 &
b10100 3
b10100 Y
0T
b100 [
#500000
0!
#550000
b100001000000100110011 8
1!
#550001
1~
0'"
0)"
b1110 ("
0&"
0R
1Q
b10100 V"
1%"
1X
b0 S
b0 R"
0T
b111 [
b111 $"
b111 #"
b0 X"
b11 Y"
b10100 Z
0(
#550002
b0 *
b0 4
b0 >
b0 J
b10 ,
b10 6
b10 <
b10 H
b100011 )
b100011 2
b100011 ?
b100011 K
b10 "
b10 /
b10 B
b10 O
b0 #
b0 0
b0 A
b0 N
b0 $
b0 1
b0 @
b0 M
b1000000010000000100011 .
b1000000010000000100011 ;
b1000000010000000100011 F
17
0~
0t
b11000 %
b11000 -
b11000 L
b11000 :
b11000 C
b10100 V"
0X
0'
1(
0%"
b10 \
0y
b11000 &
b11000 3
b11000 Y
0T
b100 [
#600000
0!
#650000
b1000000010000000100011 8
1!
#650001
1j
0p
b10100 V"
1o
0T
b111 [
b1110 x
b100 ^
b0 X"
b10 Y"
b11000 Z
0(
#650002
b100 *
b100 4
b100 >
b100 J
b11 )
b11 2
b11 ?
b11 K
b100 "
b100 /
b100 B
b100 O
b1 $
b1 1
b1 @
b1 M
b10000000010000010000011 .
b10000000010000010000011 ;
b10000000010000010000011 F
17
b11100 %
b11100 -
b11100 L
b11100 :
b11100 C
b10100 V"
0'
1(
b11100 &
b11100 3
b11100 Y
0T
b100 [
#700000
0!
#750000
b10000000010000010000011 8
1!
#750001
b111 P
b111 U"
0R
1Q
b10100 V"
1X
0V
b100 S
b100 R"
0T
b111 [
b100 $"
b0 #"
b10 ""
b101 ^
b0 X"
b11 Y"
b11100 Z
0(
#750002
b10 *
b10 4
b10 >
b10 J
b0 ,
b0 6
b0 <
b0 H
b110011 )
b110011 2
b110011 ?
b110011 K
b10 "
b10 /
b10 B
b10 O
b1 #
b1 0
b1 A
b1 N
b11 $
b11 1
b11 @
b11 M
b1000001000000110110011 .
b1000001000000110110011 ;
b1000001000000110110011 F
17
0j
b100000 %
b100000 -
b100000 L
b100000 :
b100000 C
b10100 V"
0X
0'
1(
b11 \
0o
b100000 &
b100000 3
b100000 Y
0T
b100 [
#800000
0!
#850000
b1000001000000110110011 8
1!
#850001
1t
0z
b10100 V"
1y
b0 x
0T
b111 [
b0 l
b1110 n
b0 X"
b1 Y"
b100000 Z
0(
#850002
b100 *
b100 4
b100 >
b100 J
b10 ,
b10 6
b10 <
b10 H
b11 )
b11 2
b11 ?
b11 K
b100 "
b100 /
b100 B
b100 O
b0 #
b0 0
b0 A
b0 N
b10000000010000110000011 .
b10000000010000110000011 ;
b10000000010000110000011 F
17
b100100 %
b100100 -
b100100 L
b100100 :
b100100 C
b10100 V"
0'
1(
b100100 &
b100100 3
b100100 Y
0T
b100 [
#900000
0!
#950000
b10000000010000110000011 8
1!
#950001
b0 P
b0 U"
0R
1Q
b10100 V"
1X
1V
b1110 U
b1110 S"
b0 S
b0 R"
0T
b111 [
b100 ."
b10 ,"
b110 ^
b0 X"
b100 Y"
b100100 Z
0(
#950002
b1 *
b1 4
b1 >
b1 J
b0 ,
b0 6
b0 <
b0 H
b10011 )
b10011 2
b10011 ?
b10011 K
b1 "
b1 /
b1 B
b1 O
b100 #
b100 0
b100 A
b100 N
b100 $
b100 1
b100 @
b100 M
b100100000001000010011 .
b100100000001000010011 ;
b100100000001000010011 F
17
0t
b101000 %
b101000 -
b101000 L
b101000 :
b101000 C
b10100 V"
0X
0'
1(
b100 \
0y
b101000 &
b101000 3
b101000 Y
0T
b100 [
#1000000
0!
#1050000
b100100000001000010011 8
1!
#1050001
1~
b100 ("
0&"
1t
0}
b1 |
0z
b10100 V"
1%"
1y
0T
b111 [
b0 v
b1 x
b0 X"
b10 Y"
b101000 Z
0(
#1050002
b11111111111111111111111111011000 *
b11111111111111111111111111011000 4
b11111111111111111111111111011000 >
b11111111111111111111111111011000 J
b1111110 +
b1111110 5
b1111110 =
b1111110 I
b100 ,
b100 6
b100 <
b100 H
b1100011 )
b1100011 2
b1100011 ?
b1100011 K
b101 "
b101 /
b101 B
b101 O
b11000 $
b11000 1
b11000 @
b11000 M
b11111100010100100100110001100011 .
b11111100010100100100110001100011 ;
b11111100010100100100110001100011 F
17
0t
b101100 %
b101100 -
b101100 L
b101100 :
b101100 C
b10100 V"
0'
1(
0y
b101100 &
b101100 3
b101100 Y
0T
b100 [
#1100000
0!
#1150000
b11111100010100100100110001100011 8
1!
#1150001
b111 P
b111 U"
0R
1Q
1t
1{
b11111111111111111111111111111001 |
0z
b10100 V"
09
1X
0V
b100 S
b100 R"
1y
b100000 v
0T
b111 [
b1000 x
b1 w
b0 X"
b10 Y"
b101100 Z
0(
#1150002
b111 *
b111 4
b111 >
b111 J
b0 +
b0 5
b0 =
b0 I
b0 ,
b0 6
b0 <
b0 H
b10011 )
b10011 2
b10011 ?
b10011 K
b111 "
b111 /
b111 B
b111 O
b1 #
b1 0
b1 A
b1 N
b1 $
b1 1
b1 @
b1 M
b11100001000000010010011 .
b11100001000000010010011 ;
b11100001000000010010011 F
17
0~
0t
b100 %
b100 -
b100 L
b100 :
b100 C
b10100 V"
0X
0'
1(
b101 \
0%"
0y
b100 &
b100 3
b100 Y
b111 m
0T
b100 [
#1200000
0!
#1250000
19
b0 8
1!
#1250001
1*"
01"
03"
b100 2"
00"
1t
0{
b1110 |
0z
1j
b10101 r
0p
b10100 V"
1/"
1y
1o
0T
b111 [
b0 v
b111 x
b111 w
b0 X"
b10 Y"
b100 Z
0(
#1250002
b100 *
b100 4
b100 >
b100 J
b10 ,
b10 6
b10 <
b10 H
b100011 )
b100011 2
b100011 ?
b100011 K
b1 "
b1 /
b1 B
b1 O
b0 #
b0 0
b0 A
b0 N
b100 $
b100 1
b100 @
b100 M
b100000010001000100011 .
b100000010001000100011 ;
b100000010001000100011 F
17
0t
0j
b1000 %
b1000 -
b1000 L
b1000 :
b1000 C
b10100 V"
0'
1(
0y
0o
b1000 &
b1000 3
b1000 Y
0T
b100 [
#1300000
0!
#1350000
b100000010001000100011 8
1!
#1350001
0R
1Q
b10100 V"
1X
0T
b111 [
b0 m
b10 l
b111 ^
b0 X"
b1 Y"
b1000 Z
0(
#1350002
b0 *
b0 4
b0 >
b0 J
b0 $
b0 1
b0 @
b0 M
b100000010000000100011 .
b100000010000000100011 ;
b100000010000000100011 F
17
0*"
b1100 %
b1100 -
b1100 L
b1100 :
b1100 C
b10100 V"
0X
0'
1(
b110 \
0/"
b1100 &
b1100 3
b1100 Y
0T
b100 [
#1400000
0!
#1450000
b100000010000000100011 8
1!
#1450001
1j
b100 r
0p
b10100 V"
1o
b100 n
0T
b111 [
b1110 x
b0 w
b10 v
b1000 ^
b0 X"
b10 Y"
b1100 Z
0(
#1450002
b100 *
b100 4
b100 >
b100 J
b11 )
b11 2
b11 ?
b11 K
b100 "
b100 /
b100 B
b100 O
b10 $
b10 1
b10 @
b10 M
b10000000010000100000011 .
b10000000010000100000011 ;
b10000000010000100000011 F
17
b10000 %
b10000 -
b10000 L
b10000 :
b10000 C
b10100 V"
0'
1(
b10000 &
b10000 3
b10000 Y
0T
b100 [
#1500000
0!
#1550000
b10000000010000100000011 8
1!
#1550001
b0 P
b0 U"
0R
1Q
b10100 V"
1X
1V
0T
b111 [
b1001 ^
b0 X"
b11 Y"
b10000 Z
0(
#1550002
b1 *
b1 4
b1 >
b1 J
b0 ,
b0 6
b0 <
b0 H
b110011 )
b110011 2
b110011 ?
b110011 K
b1 "
b1 /
b1 B
b1 O
b1 #
b1 0
b1 A
b1 N
b100001000000100110011 .
b100001000000100110011 ;
b100001000000100110011 F
17
0j
b10100 %
b10100 -
b10100 L
b10100 :
b10100 C
b10100 V"
0X
0'
1(
b111 \
0o
b10100 &
b10100 3
b10100 Y
0T
b100 [
#1600000
0!
#1650000
b100001000000100110011 8
1!
#1650001
1t
1}
b0 |
0z
1j
b11100 r
0p
b10100 V"
1y
b0 x
1o
0T
b111 [
b0 l
b1110 n
b1110 m
b0 X"
b1 Y"
b10100 Z
0(
#1650002
b0 *
b0 4
b0 >
b0 J
b10 ,
b10 6
b10 <
b10 H
b100011 )
b100011 2
b100011 ?
b100011 K
b10 "
b10 /
b10 B
b10 O
b0 #
b0 0
b0 A
b0 N
b0 $
b0 1
b0 @
b0 M
b1000000010000000100011 .
b1000000010000000100011 ;
b1000000010000000100011 F
17
0j
b11000 %
b11000 -
b11000 L
b11000 :
b11000 C
b10100 V"
0'
1(
0o
b11000 &
b11000 3
b11000 Y
0T
b100 [
#1700000
0!
#1750000
b1000000010000000100011 8
1!
#1750001
0R
1Q
b10100 V"
1X
b0 S
b0 R"
0T
b111 [
b11100 n
b0 m
b10 l
b1010 ^
b0 X"
b1 Y"
b11000 Z
0(
#1750002
b100 *
b100 4
b100 >
b100 J
b11 )
b11 2
b11 ?
b11 K
b100 "
b100 /
b100 B
b100 O
b1 $
b1 1
b1 @
b1 M
b10000000010000010000011 .
b10000000010000010000011 ;
b10000000010000010000011 F
17
0t
b11100 %
b11100 -
b11100 L
b11100 :
b11100 C
b10100 V"
0X
0'
1(
b1000 \
0y
b11100 &
b11100 3
b11100 Y
0T
b100 [
#1800000
0!
#1850000
b10000000010000010000011 8
1!
#1850001
1~
0&"
b10100 V"
1%"
0T
b111 [
b100 x
b1011 ^
b0 X"
b10 Y"
b11100 Z
0(
#1850002
b10 *
b10 4
b10 >
b10 J
b0 ,
b0 6
b0 <
b0 H
b110011 )
b110011 2
b110011 ?
b110011 K
b10 "
b10 /
b10 B
b10 O
b1 #
b1 0
b1 A
b1 N
b11 $
b11 1
b11 @
b11 M
b1000001000000110110011 .
b1000001000000110110011 ;
b1000001000000110110011 F
17
b100000 %
b100000 -
b100000 L
b100000 :
b100000 C
b10100 V"
0'
1(
b100000 &
b100000 3
b100000 Y
0T
b100 [
#1900000
0!
#1950000
b1000001000000110110011 8
1!
#1950001
b1110 P
b1110 U"
0R
1Q
b10100 V"
1X
0V
b100 S
b100 R"
0T
b111 [
b0 ,"
b11100 ."
b0 X"
b100 Y"
b100000 Z
0(
#1950002
b100 *
b100 4
b100 >
b100 J
b10 ,
b10 6
b10 <
b10 H
b11 )
b11 2
b11 ?
b11 K
b100 "
b100 /
b100 B
b100 O
b0 #
b0 0
b0 A
b0 N
b10000000010000110000011 .
b10000000010000110000011 ;
b10000000010000110000011 F
17
0~
b100100 %
b100100 -
b100100 L
b100100 :
b100100 C
b10100 V"
0X
0'
1(
b1001 \
0%"
b100100 &
b100100 3
b100100 Y
0T
b100 [
#2000000
0!
#2050000
b10000000010000110000011 8
1!
#2050001
1j
1s
b0 r
0p
b10100 V"
1o
b0 n
0T
b111 [
b1100 ^
b0 X"
b11 Y"
b100100 Z
0(
#2050002
b1 *
b1 4
b1 >
b1 J
b0 ,
b0 6
b0 <
b0 H
b10011 )
b10011 2
b10011 ?
b10011 K
b1 "
b1 /
b1 B
b1 O
b100 #
b100 0
b100 A
b100 N
b100 $
b100 1
b100 @
b100 M
b100100000001000010011 .
b100100000001000010011 ;
b100100000001000010011 F
17
b101000 %
b101000 -
b101000 L
b101000 :
b101000 C
b10100 V"
0'
1(
b101000 &
b101000 3
b101000 Y
0T
b100 [
#2100000
0!
#2150000
b100100000001000010011 8
1!
#2150001
b0 P
b0 U"
14"
0;"
0="
b10 <"
0:"
0R
1Q
b10100 V"
19"
1X
1V
b11100 U
b11100 S"
b0 S
b0 R"
0T
b111 [
b1 8"
b1 7"
b0 X"
b101 Y"
b101000 Z
0(
#2150002
b11111111111111111111111111011000 *
b11111111111111111111111111011000 4
b11111111111111111111111111011000 >
b11111111111111111111111111011000 J
b1111110 +
b1111110 5
b1111110 =
b1111110 I
b100 ,
b100 6
b100 <
b100 H
b1100011 )
b1100011 2
b1100011 ?
b1100011 K
b101 "
b101 /
b101 B
b101 O
b11000 $
b11000 1
b11000 @
b11000 M
b11111100010100100100110001100011 .
b11111100010100100100110001100011 ;
b11111100010100100100110001100011 F
17
04"
0j
b101100 %
b101100 -
b101100 L
b101100 :
b101100 C
b10100 V"
0X
0'
1(
09"
b1010 \
0o
b101100 &
b101100 3
b101100 Y
0T
b100 [
#2200000
0!
#2250000
b11111100010100100100110001100011 8
1!
#2250001
1t
0}
b100 |
0z
1j
1q
0s
b11111111111111111111111111111010 r
0p
b10100 V"
09
1y
1o
b100000 l
0T
b111 [
b1000 n
b10 m
b0 X"
b1 Y"
b101100 Z
0(
#2250002
b111 *
b111 4
b111 >
b111 J
b0 +
b0 5
b0 =
b0 I
b0 ,
b0 6
b0 <
b0 H
b10011 )
b10011 2
b10011 ?
b10011 K
b111 "
b111 /
b111 B
b111 O
b1 #
b1 0
b1 A
b1 N
b1 $
b1 1
b1 @
b1 M
b11100001000000010010011 .
b11100001000000010010011 ;
b11100001000000010010011 F
17
0j
b100 %
b100 -
b100 L
b100 :
b100 C
b10100 V"
0'
1(
0o
b100 &
b100 3
b100 Y
0T
b100 [
#2300000
0!
#2350000
19
b0 8
1!
#2350001
b1110 P
b1110 U"
0R
1Q
b10100 V"
1X
0V
b100 S
b100 R"
0T
b111 [
b0 l
b111 n
b0 X"
b1 Y"
b100 Z
0(
#2350002
b100 *
b100 4
b100 >
b100 J
b10 ,
b10 6
b10 <
b10 H
b100011 )
b100011 2
b100011 ?
b100011 K
b1 "
b1 /
b1 B
b1 O
b0 #
b0 0
b0 A
b0 N
b100 $
b100 1
b100 @
b100 M
b100000010001000100011 .
b100000010001000100011 ;
b100000010001000100011 F
17
0t
b1000 %
b1000 -
b1000 L
b1000 :
b1000 C
b10100 V"
0X
0'
1(
b1011 \
0y
b1000 &
b1000 3
b1000 Y
b1110 -"
b1110 m
0T
b100 [
#2400000
0!
#2450000
b100000010001000100011 8
1!
#2450001
1*"
b101010 2"
00"
1~
0&"
1j
0q
b10101 r
0p
b10100 V"
1/"
1%"
1o
0T
b111 [
b1101 ^
b0 X"
b10 Y"
b1000 Z
0(
#2450002
b0 *
b0 4
b0 >
b0 J
b0 $
b0 1
b0 @
b0 M
b100000010000000100011 .
b100000010000000100011 ;
b100000010000000100011 F
17
0*"
0j
b1100 %
b1100 -
b1100 L
b1100 :
b1100 C
b10100 V"
0'
1(
0/"
0o
b1100 &
b1100 3
b1100 Y
b10101 x
0T
b100 [
#2500000
0!
#2550000
b100000010000000100011 8
1!
#2550001
0R
1Q
b10100 V"
1X
0T
b111 [
b10101 n
b0 m
b10 l
b1110 ^
b0 X"
b1 Y"
b1100 Z
0(
#2550002
b100 *
b100 4
b100 >
b100 J
b11 )
b11 2
b11 ?
b11 K
b100 "
b100 /
b100 B
b100 O
b10 $
b10 1
b10 @
b10 M
b10000000010000100000011 .
b10000000010000100000011 ;
b10000000010000100000011 F
17
0~
b10000 %
b10000 -
b10000 L
b10000 :
b10000 C
b10100 V"
0X
0'
1(
b1100 \
0%"
b10000 &
b10000 3
b10000 Y
0T
b100 [
#2600000
0!
#2650000
b10000000010000100000011 8
1!
#2650001
1t
0z
b10100 V"
1y
b100 x
0T
b111 [
b1111 ^
b0 X"
b11 Y"
b10000 Z
0(
#2650002
b1 *
b1 4
b1 >
b1 J
b0 ,
b0 6
b0 <
b0 H
b110011 )
b110011 2
b110011 ?
b110011 K
b1 "
b1 /
b1 B
b1 O
b1 #
b1 0
b1 A
b1 N
b100001000000100110011 .
b100001000000100110011 ;
b100001000000100110011 F
17
b10100 %
b10100 -
b10100 L
b10100 :
b10100 C
b10100 V"
0'
1(
b10100 &
b10100 3
b10100 Y
0T
b100 [
#2700000
0!
#2750000
b100001000000100110011 8
1!
#2750001
b0 P
b0 U"
1*"
00"
0R
1Q
b10100 V"
1/"
1X
1V
b10101 U
b10101 S"
0T
b111 [
b10101 ."
b10101 -"
b0 X"
b100 Y"
b10100 Z
0(
#2750002
b0 *
b0 4
b0 >
b0 J
b10 ,
b10 6
b10 <
b10 H
b100011 )
b100011 2
b100011 ?
b100011 K
b10 "
b10 /
b10 B
b10 O
b0 #
b0 0
b0 A
b0 N
b0 $
b0 1
b0 @
b0 M
b1000000010000000100011 .
b1000000010000000100011 ;
b1000000010000000100011 F
17
0*"
0t
b11000 %
b11000 -
b11000 L
b11000 :
b11000 C
b10100 V"
0X
0'
1(
0/"
b1101 \
0y
b11000 &
b11000 3
b11000 Y
0T
b100 [
#2800000
0!
#2850000
b1000000010000000100011 8
1!
#2850001
1j
1s
b0 r
0p
b10100 V"
1o
b0 n
0T
b111 [
b101010 x
b10000 ^
b0 X"
b10 Y"
b11000 Z
0(
#2850002
b100 *
b100 4
b100 >
b100 J
b11 )
b11 2
b11 ?
b11 K
b100 "
b100 /
b100 B
b100 O
b1 $
b1 1
b1 @
b1 M
b10000000010000010000011 .
b10000000010000010000011 ;
b10000000010000010000011 F
17
b11100 %
b11100 -
b11100 L
b11100 :
b11100 C
b10100 V"
0'
1(
b11100 &
b11100 3
b11100 Y
0T
b100 [
#2900000
0!
#2950000
b10000000010000010000011 8
1!
#2950001
0R
1Q
b10100 V"
1X
b0 S
b0 R"
0T
b111 [
b100 ."
b0 -"
b10 ,"
b10001 ^
b0 X"
b100 Y"
b11100 Z
0(
#2950002
b10 *
b10 4
b10 >
b10 J
b0 ,
b0 6
b0 <
b0 H
b110011 )
b110011 2
b110011 ?
b110011 K
b10 "
b10 /
b10 B
b10 O
b1 #
b1 0
b1 A
b1 N
b11 $
b11 1
b11 @
b11 M
b1000001000000110110011 .
b1000001000000110110011 ;
b1000001000000110110011 F
17
0j
b100000 %
b100000 -
b100000 L
b100000 :
b100000 C
b10100 V"
0X
0'
1(
b1110 \
0o
b100000 &
b100000 3
b100000 Y
0T
b100 [
#3000000
0!
#3050000
b1000001000000110110011 8
1!
#3050001
1~
0&"
b10100 V"
1%"
0T
b111 [
b0 l
b101010 n
b0 X"
b1 Y"
b100000 Z
0(
#3050002
b100 *
b100 4
b100 >
b100 J
b10 ,
b10 6
b10 <
b10 H
b11 )
b11 2
b11 ?
b11 K
b100 "
b100 /
b100 B
b100 O
b0 #
b0 0
b0 A
b0 N
b10000000010000110000011 .
b10000000010000110000011 ;
b10000000010000110000011 F
17
b100100 %
b100100 -
b100100 L
b100100 :
b100100 C
b10100 V"
0'
1(
b100100 &
b100100 3
b100100 Y
0T
b100 [
#3100000
0!
#3150000
b10000000010000110000011 8
1!
#3150001
b10101 P
b10101 U"
0R
1Q
b10100 V"
1X
0V
b100 S
b100 R"
0T
b111 [
b100 8"
b0 7"
b10 6"
b10010 ^
b0 X"
b101 Y"
b100100 Z
0(
