test.vcd
$date
	Mon Dec 18 17:00:36 2017
$end
$version
	Icarus Verilog
$end
$timescale
	1s
$end
$scope module cpu_tb $end
$scope module cpu0 $end
$var wire 1 ! clk $end
$var wire 1 " get_npc $end
$var wire 32 # npc [31:0] $end
$var wire 32 $ opc [31:0] $end
$var wire 5 % rs2 [4:0] $end
$var wire 5 & rs1 [4:0] $end
$var wire 5 ' rd [4:0] $end
$var wire 1 ( is_busy $end
$var wire 7 ) _opcode [6:0] $end
$var wire 32 * _imm [31:0] $end
$var wire 7 + _fun7 [6:0] $end
$var wire 3 , _fun3 [2:0] $end
$scope module ic $end
$var wire 1 ! clk $end
$var wire 1 " get_npc $end
$var wire 32 - npc [31:0] $end
$var wire 32 . opc [31:0] $end
$var wire 32 / tmp_instr [31:0] $end
$var wire 5 0 rs2 [4:0] $end
$var wire 5 1 rs1 [4:0] $end
$var wire 5 2 rd [4:0] $end
$var wire 7 3 opcode [6:0] $end
$var wire 1 ( is_busy $end
$var wire 32 4 imm [31:0] $end
$var wire 7 5 fun7 [6:0] $end
$var wire 3 6 fun3 [2:0] $end
$var wire 1 7 done $end
$var reg 32 8 instr [31:0] $end
$var reg 1 9 is_fetch $end
$var reg 32 : pc [31:0] $end
$scope module decode $end
$var wire 1 ! clk $end
$var wire 32 ; instr [31:0] $end
$var reg 3 < fun3 [2:0] $end
$var reg 7 = fun7 [6:0] $end
$var reg 32 > imm [31:0] $end
$var reg 7 ? opCode [6:0] $end
$var reg 5 @ rd [4:0] $end
$var reg 5 A rs1 [4:0] $end
$var reg 5 B rs2 [4:0] $end
$upscope $end
$scope module instr_mem $end
$var wire 32 C adr [31:0] $end
$var wire 1 ! clk $end
$var wire 32 D in [31:0] $end
$var wire 1 E load $end
$var reg 1 7 done $end
$var reg 32 F out [31:0] $end
$var integer 32 G i [31:0] $end
$upscope $end
$upscope $end
$scope module rg $end
$var wire 3 H _fun3 [2:0] $end
$var wire 7 I _fun7 [6:0] $end
$var wire 32 J _imm [31:0] $end
$var wire 7 K _opcode [6:0] $end
$var wire 1 ! clk $end
$var wire 1 " get_npc $end
$var wire 32 L npc [31:0] $end
$var wire 32 M opc [31:0] $end
$var wire 5 N rd [4:0] $end
$var wire 5 O rs1 [4:0] $end
$var wire 5 P rs2 [4:0] $end
$var wire 32 Q mem_out [31:0] $end
$var wire 1 R mem_busy $end
$var reg 1 ( is_busy $end
$var reg 32 S mem_adr [31:0] $end
$var reg 32 T mem_in [31:0] $end
$var reg 1 U mem_load $end
$var reg 1 V mem_start $end
$var integer 32 W i [31:0] $end
$var integer 32 X qhead [31:0] $end
$var integer 32 Y qsz [31:0] $end
$var integer 32 Z qtail [31:0] $end
$scope module alu[0] $end
$var wire 3 [ fun3 [2:0] $end
$var wire 7 \ fun7 [6:0] $end
$var wire 32 ] rs1 [31:0] $end
$var wire 32 ^ rs2 [31:0] $end
$var wire 1 _ start $end
$var reg 1 ` busy $end
$var reg 1 a done $end
$var reg 1 b neg $end
$var reg 32 c res [31:0] $end
$var reg 1 d zero $end
$upscope $end
$scope module alu[1] $end
$var wire 3 e fun3 [2:0] $end
$var wire 7 f fun7 [6:0] $end
$var wire 32 g rs1 [31:0] $end
$var wire 32 h rs2 [31:0] $end
$var wire 1 i start $end
$var reg 1 j busy $end
$var reg 1 k done $end
$var reg 1 l neg $end
$var reg 32 m res [31:0] $end
$var reg 1 n zero $end
$upscope $end
$scope module alu[2] $end
$var wire 3 o fun3 [2:0] $end
$var wire 7 p fun7 [6:0] $end
$var wire 32 q rs1 [31:0] $end
$var wire 32 r rs2 [31:0] $end
$var wire 1 s start $end
$var reg 1 t busy $end
$var reg 1 u done $end
$var reg 1 v neg $end
$var reg 32 w res [31:0] $end
$var reg 1 x zero $end
$upscope $end
$scope module alu[3] $end
$var wire 3 y fun3 [2:0] $end
$var wire 7 z fun7 [6:0] $end
$var wire 32 { rs1 [31:0] $end
$var wire 32 | rs2 [31:0] $end
$var wire 1 } start $end
$var reg 1 ~ busy $end
$var reg 1 !" done $end
$var reg 1 "" neg $end
$var reg 32 #" res [31:0] $end
$var reg 1 $" zero $end
$upscope $end
$scope module alu[4] $end
$var wire 3 %" fun3 [2:0] $end
$var wire 7 &" fun7 [6:0] $end
$var wire 32 '" rs1 [31:0] $end
$var wire 32 (" rs2 [31:0] $end
$var wire 1 )" start $end
$var reg 1 *" busy $end
$var reg 1 +" done $end
$var reg 1 ," neg $end
$var reg 32 -" res [31:0] $end
$var reg 1 ." zero $end
$upscope $end
$scope module alu[5] $end
$var wire 3 /" fun3 [2:0] $end
$var wire 7 0" fun7 [6:0] $end
$var wire 32 1" rs1 [31:0] $end
$var wire 32 2" rs2 [31:0] $end
$var wire 1 3" start $end
$var reg 1 4" busy $end
$var reg 1 5" done $end
$var reg 1 6" neg $end
$var reg 32 7" res [31:0] $end
$var reg 1 8" zero $end
$upscope $end
$scope module alu[6] $end
$var wire 3 9" fun3 [2:0] $end
$var wire 7 :" fun7 [6:0] $end
$var wire 32 ;" rs1 [31:0] $end
$var wire 32 <" rs2 [31:0] $end
$var wire 1 =" start $end
$var reg 1 >" busy $end
$var reg 1 ?" done $end
$var reg 1 @" neg $end
$var reg 32 A" res [31:0] $end
$var reg 1 B" zero $end
$upscope $end
$scope module alu[7] $end
$var wire 3 C" fun3 [2:0] $end
$var wire 7 D" fun7 [6:0] $end
$var wire 32 E" rs1 [31:0] $end
$var wire 32 F" rs2 [31:0] $end
$var wire 1 G" start $end
$var reg 1 H" busy $end
$var reg 1 I" done $end
$var reg 1 J" neg $end
$var reg 32 K" res [31:0] $end
$var reg 1 L" zero $end
$upscope $end
$scope module mem $end
$var wire 32 M" adr [31:0] $end
$var wire 32 N" in [31:0] $end
$var wire 1 U load $end
$var wire 1 V start $end
$var reg 1 R busy $end
$var reg 32 O" out [31:0] $end
$var integer 32 P" i [31:0] $end
$upscope $end
$scope begin init $end
$var integer 32 Q" i [31:0] $end
$upscope $end
$scope begin newcmd $end
$var integer 32 R" i [31:0] $end
$var integer 32 S" r [31:0] $end
$upscope $end
$upscope $end
$upscope $end
$upscope $end
$enddefinitions $end
#0
$dumpvars
bx S"
bx R"
b1000 Q"
b10000000000 P"
bx O"
bx N"
bx M"
xL"
bx K"
xJ"
xI"
0H"
0G"
b0 F"
b0 E"
b0 D"
b0 C"
xB"
bx A"
x@"
x?"
0>"
0="
b0 <"
b0 ;"
b0 :"
b0 9"
x8"
bx 7"
x6"
x5"
04"
03"
b0 2"
b0 1"
b0 0"
b0 /"
x."
bx -"
x,"
x+"
0*"
0)"
b0 ("
b0 '"
b0 &"
b0 %"
x$"
bx #"
x""
x!"
0~
0}
b0 |
b0 {
b0 z
b0 y
xx
bx w
xv
xu
0t
0s
b0 r
b0 q
b0 p
b0 o
xn
bx m
xl
xk
0j
0i
b0 h
b0 g
b0 f
b0 e
xd
bx c
xb
xa
0`
z_
bz ^
bz ]
bz \
bz [
b0 Z
b0 Y
b0 X
bx W
xV
xU
bx T
bx S
0R
bx Q
b0 P
b0 O
b0 N
bz M
bz L
b0 K
bx J
b0 I
b0 H
b10000000000 G
b0 F
0E
b0 D
b0 C
b0 B
b0 A
b0 @
b0 ?
bx >
b0 =
b0 <
b0 ;
b0 :
19
b0 8
17
b0 6
b0 5
bx 4
b0 3
b0 2
b0 1
b0 0
b0 /
bz .
bz -
b0 ,
b0 +
bx *
b0 )
x(
b0 '
b0 &
b0 %
bz $
bz #
0"
0!
$end
#50
b0 *
b0 4
b0 >
b0 J
b10011 )
b10011 3
b10011 ?
b10011 K
b1000000001100010000000100110011 /
b1000000001100010000000100110011 F
b10011 8
b10011 ;
17
1!
#51
b111 W
#52
b101 P"
0R
1V
0(
b100 W
#100
0!
#150
b10000000011 *
b10000000011 4
b10000000011 >
b10000000011 J
b100000 +
b100000 5
b100000 =
b100000 I
b11 %
b11 0
b11 B
b11 P
b10 &
b10 1
b10 A
b10 O
b10 '
b10 2
b10 @
b10 N
b110011 )
b110011 3
b110011 ?
b110011 K
b100 :
b100 C
b1000000001100010000000100110011 8
b1000000001100010000000100110011 ;
17
1!
#151
b111 W
#152
b101 P"
0R
1V
0(
b100 W
#200
0!
#250
b100000 +
b100000 5
b100000 =
b100000 I
b110011 )
b110011 3
b110011 ?
b110011 K
b11 %
b11 0
b11 B
b11 P
b10 &
b10 1
b10 A
b10 O
b10 '
b10 2
b10 @
b10 N
b10000100111000100110011 /
b10000100111000100110011 F
b1000 :
b1000 C
b100000 f
b0 R"
b1 S"
17
b1000000001100010000000100110011 8
b1000000001100010000000100110011 ;
1!
#251
0l
1n
b0 m
1k
0j
1i
b111 W
#252
b101 P"
0R
1V
0(
0i
b100 W
#300
0!
#350
b100 *
b100 4
b100 >
b100 J
b111 ,
b111 6
b111 <
b111 H
b0 +
b0 5
b0 =
b0 I
b110011 )
b110011 3
b110011 ?
b110011 K
b100 %
b100 0
b100 B
b100 P
b100 &
b100 1
b100 A
b100 O
b10 '
b10 2
b10 @
b10 N
b1100 :
b1100 C
b100000010110001010010011 /
b100000010110001010010011 F
b0 R"
b1 S"
b10000100111000100110011 8
b10000100111000100110011 ;
17
1!
#351
1k
0j
1i
b111 W
#352
b101 P"
0R
1V
0(
0i
b100 W
#400
0!
#450
b1000 *
b1000 4
b1000 >
b1000 J
b110 ,
b110 6
b110 <
b110 H
b10011 )
b10011 3
b10011 ?
b10011 K
b1000 %
b1000 0
b1000 B
b1000 P
b10 &
b10 1
b10 A
b10 O
b101 '
b101 2
b101 @
b101 N
b1100101110000110110011 /
b1100101110000110110011 F
b10000 :
b10000 C
b0 f
b111 e
b0 R"
b1 S"
17
b100000010110001010010011 8
b100000010110001010010011 ;
1!
#451
1k
0j
1i
b111 W
#452
b101 P"
0R
1V
0(
0i
b100 W
#500
0!
#550
b11 *
b11 4
b11 >
b11 J
b110 ,
b110 6
b110 <
b110 H
b110011 )
b110011 3
b110011 ?
b110011 K
b11 %
b11 0
b11 B
b11 P
b101 &
b101 1
b101 A
b101 O
b11 '
b11 2
b11 @
b11 N
b10100 :
b10100 C
b1000001000001000110011 /
b1000001000001000110011 F
b110 e
b1000 h
b0 R"
b1 S"
b1100101110000110110011 8
b1100101110000110110011 ;
17
1!
#551
0n
b1000 m
1k
0j
1i
b111 W
#552
b101 P"
0R
1V
0(
0i
b100 W
#600
0!
#650
b10 *
b10 4
b10 >
b10 J
b0 ,
b0 6
b0 <
b0 H
b110011 )
b110011 3
b110011 ?
b110011 K
b10 %
b10 0
b10 B
b10 P
b1 &
b1 1
b1 A
b1 O
b100 '
b100 2
b100 @
b100 N
b100000010000000010010011 /
b100000010000000010010011 F
b11000 :
b11000 C
b0 h
b1000 g
b0 R"
b1 S"
17
b1000001000001000110011 8
b1000001000001000110011 ;
1!
#651
1k
0j
1i
b111 W
#652
b101 P"
0R
1V
0(
0i
b100 W
#700
0!
#750
b1000 *
b1000 4
b1000 >
b1000 J
b10011 )
b10011 3
b10011 ?
b10011 K
b1000 %
b1000 0
b1000 B
b1000 P
b10 &
b10 1
b10 A
b10 O
b1 '
b1 2
b1 @
b1 N
b11100 :
b11100 C
b100100000000110011 /
b100100000000110011 F
b0 e
b0 g
b0 R"
b1 S"
b100000010000000010010011 8
b100000010000000010010011 ;
17
1!
#751
1n
b0 m
1k
0j
1i
b111 W
#752
b101 P"
0R
1V
0(
0i
b100 W
#800
0!
#850
b0 *
b0 4
b0 >
b0 J
b100 ,
b100 6
b100 <
b100 H
b110011 )
b110011 3
b110011 ?
b110011 K
b0 %
b0 0
b0 B
b0 P
b100 &
b100 1
b100 A
b100 O
b0 '
b0 2
b0 @
b0 N
b1000000001000100000000100110011 /
b1000000001000100000000100110011 F
b100000 :
b100000 C
b1000 h
b0 R"
b1 S"
17
b100100000000110011 8
b100100000000110011 ;
1!
#851
0n
b1000 m
1k
0j
1i
b111 W
#852
b101 P"
0R
1V
0(
0i
b100 W
#900
0!
#950
b10000000010 *
b10000000010 4
b10000000010 >
b10000000010 J
b100000 +
b100000 5
b100000 =
b100000 I
b10 %
b10 0
b10 B
b10 P
b10 '
b10 2
b10 @
b10 N
b0 ,
b0 6
b0 <
b0 H
b110011 )
b110011 3
b110011 ?
b110011 K
b100 &
b100 1
b100 A
b100 O
b100100 :
b100100 C
b1000000010000011000001010110011 /
b1000000010000011000001010110011 F
b100 e
b0 h
b0 R"
b1 S"
b1000000001000100000000100110011 8
b1000000001000100000000100110011 ;
17
1!
#951
1n
b0 m
1k
0j
1i
b111 W
#952
b101 P"
0R
1V
0(
0i
b100 W
#1000
0!
#1050
b10000000100 *
b10000000100 4
b10000000100 >
b10000000100 J
b100000 +
b100000 5
b100000 =
b100000 I
b110011 )
b110011 3
b110011 ?
b110011 K
b100 %
b100 0
b100 B
b100 P
b11 &
b11 1
b11 A
b11 O
b101 '
b101 2
b101 @
b101 N
b100000000001000010011 /
b100000000001000010011 F
b101000 :
b101000 C
b100000 f
b0 e
b0 R"
b1 S"
17
b1000000010000011000001010110011 8
b1000000010000011000001010110011 ;
1!
#1051
1k
0j
1i
b111 W
#1052
b101 P"
0R
1V
0(
0i
b100 W
#1100
0!
#1150
b1 *
b1 4
b1 >
b1 J
b0 +
b0 5
b0 =
b0 I
b10011 )
b10011 3
b10011 ?
b10011 K
b1 %
b1 0
b1 B
b1 P
b0 &
b0 1
b0 A
b0 O
b100 '
b100 2
b100 @
b100 N
b101100 :
b101100 C
b1100010000001000110011 /
b1100010000001000110011 F
b1000 g
b0 R"
b1 S"
b100000000001000010011 8
b100000000001000010011 ;
17
1!
#1151
0n
b1000 m
1k
0j
1i
b111 W
#1152
b101 P"
0R
1V
0(
0i
b100 W
#1200
0!
#1250
b11 *
b11 4
b11 >
b11 J
b10 &
b10 1
b10 A
b10 O
b110011 )
b110011 3
b110011 ?
b110011 K
b11 %
b11 0
b11 B
b11 P
b100 '
b100 2
b100 @
b100 N
b1000000000000000000000010110011 /
b1000000000000000000000010110011 F
b110000 :
b110000 C
b0 f
b1 h
b0 g
b0 R"
b1 S"
17
b1100010000001000110011 8
b1100010000001000110011 ;
1!
#1251
b1 m
1k
0j
1i
b111 W
#1252
b101 P"
0R
1V
0(
0i
b100 W
#1300
0!
#1350
b10000000000 *
b10000000000 4
b10000000000 >
b10000000000 J
b100000 +
b100000 5
b100000 =
b100000 I
b110011 )
b110011 3
b110011 ?
b110011 K
b0 %
b0 0
b0 B
b0 P
b0 &
b0 1
b0 A
b0 O
b1 '
b1 2
b1 @
b1 N
b110100 :
b110100 C
b10000000100010011 /
b10000000100010011 F
b1000 h
b0 R"
b1 S"
b1000000000000000000000010110011 8
b1000000000000000000000010110011 ;
17
1!
#1351
b1000 m
1k
0j
1i
b111 W
#1352
b101 P"
0R
1V
0(
0i
b100 W
#1400
0!
#1450
b0 *
b0 4
b0 >
b0 J
b10 &
b10 1
b10 A
b10 O
b0 +
b0 5
b0 =
b0 I
b10011 )
b10011 3
b10011 ?
b10011 K
b10 '
b10 2
b10 @
b10 N
b100000011000000110010011 /
b100000011000000110010011 F
b111000 :
b111000 C
b100000 f
b0 h
b0 R"
b1 S"
17
b10000000100010011 8
b10000000100010011 ;
1!
#1451
1n
b0 m
1k
0j
1i
b111 W
#1452
b101 P"
0R
1V
0(
0i
b100 W
#1500
0!
#1550
b1000 *
b1000 4
b1000 >
b1000 J
b1000 %
b1000 0
b1000 B
b1000 P
b10011 )
b10011 3
b10011 ?
b10011 K
b11 &
b11 1
b11 A
b11 O
b11 '
b11 2
b11 @
b11 N
b111100 :
b111100 C
b1000000100000010010011 /
b1000000100000010010011 F
b100000011000000110010011 8
b100000011000000110010011 ;
17
1!
#1551
b111 W
#1552
b101 P"
0R
1V
0(
b100 W
#1600
0!
#1650
b10 *
b10 4
b10 >
b10 J
b100 ,
b100 6
b100 <
b100 H
b10011 )
b10011 3
b10011 ?
b10011 K
b10 %
b10 0
b10 B
b10 P
b0 &
b0 1
b0 A
b0 O
b1 '
b1 2
b1 @
b1 N
b1100000111000000010011 /
b1100000111000000010011 F
b1000000 :
b1000000 C
b0 f
b1000 h
b1000 g
b0 R"
b1 S"
17
b1000000100000010010011 8
b1000000100000010010011 ;
1!
#1651
0n
b10000 m
1k
0j
1i
b111 W
#1652
b101 P"
0R
1V
0(
0i
b100 W
#1700
0!
#1750
b11 *
b11 4
b11 >
b11 J
b111 ,
b111 6
b111 <
b111 H
b10011 )
b10011 3
b10011 ?
b10011 K
b11 %
b11 0
b11 B
b11 P
b0 '
b0 2
b0 @
b0 N
b1000100 :
b1000100 C
b100111000010110011 /
b100111000010110011 F
b100 e
b10 h
b0 g
b0 R"
b1 S"
b1100000111000000010011 8
b1100000111000000010011 ;
17
1!
#1751
b10 m
1k
0j
1i
b111 W
#1752
b101 P"
0R
1V
0(
0i
b100 W
#1800
0!
#1850
b0 *
b0 4
b0 >
b0 J
b100 &
b100 1
b100 A
b100 O
b1 '
b1 2
b1 @
b1 N
b111 ,
b111 6
b111 <
b111 H
b110011 )
b110011 3
b110011 ?
b110011 K
b0 %
b0 0
b0 B
b0 P
b10000100000001000010011 /
b10000100000001000010011 F
b1001000 :
b1001000 C
b111 e
b11 h
b0 R"
b1 S"
17
b100111000010110011 8
b100111000010110011 ;
1!
#1851
1n
b0 m
1k
0j
1i
b111 W
#1852
b101 P"
0R
1V
0(
0i
b100 W
#1900
0!
#1950
b100 *
b100 4
b100 >
b100 J
b100 %
b100 0
b100 B
b100 P
b0 ,
b0 6
b0 <
b0 H
b10011 )
b10011 3
b10011 ?
b10011 K
b100 &
b100 1
b100 A
b100 O
b100 '
b100 2
b100 @
b100 N
b1001100 :
b1001100 C
b1000000001000101000000100110011 /
b1000000001000101000000100110011 F
b0 h
b1000 g
b0 R"
b1 S"
b10000100000001000010011 8
b10000100000001000010011 ;
17
1!
#1951
1k
0j
1i
b111 W
#1952
b101 P"
0R
1V
0(
0i
b100 W
#2000
0!
#2050
b10000000010 *
b10000000010 4
b10000000010 >
b10000000010 J
b100000 +
b100000 5
b100000 =
b100000 I
b110011 )
b110011 3
b110011 ?
b110011 K
b10 %
b10 0
b10 B
b10 P
b101 &
b101 1
b101 A
b101 O
b10 '
b10 2
b10 @
b10 N
b100100000000001000010011 /
b100100000000001000010011 F
b1010000 :
b1010000 C
b0 e
b100 h
b0 R"
b1 S"
17
b1000000001000101000000100110011 8
b1000000001000101000000100110011 ;
1!
#2051
0n
b1100 m
1k
0j
1i
b111 W
#2052
b101 P"
0R
1V
0(
0i
b100 W
#2100
0!
#2150
b1001 *
b1001 4
b1001 >
b1001 J
b0 +
b0 5
b0 =
b0 I
b10011 )
b10011 3
b10011 ?
b10011 K
b1001 %
b1001 0
b1001 B
b1001 P
b0 &
b0 1
b0 A
b0 O
b100 '
b100 2
b100 @
b100 N
b1010100 :
b1010100 C
b10000011100000000110011 /
b10000011100000000110011 F
b100000 f
b0 h
b0 R"
b1 S"
b100100000000001000010011 8
b100100000000001000010011 ;
17
1!
#2151
b1000 m
1k
0j
1i
b111 W
#2152
b101 P"
0R
1V
0(
0i
b100 W
#2200
0!
#2250
b100 *
b100 4
b100 >
b100 J
b100 ,
b100 6
b100 <
b100 H
b11 &
b11 1
b11 A
b11 O
b110011 )
b110011 3
b110011 ?
b110011 K
b100 %
b100 0
b100 B
b100 P
b0 '
b0 2
b0 @
b0 N
b1000000010100011000000010110011 /
b1000000010100011000000010110011 F
b1011000 :
b1011000 C
b0 f
b1001 h
b0 g
b0 R"
b1 S"
17
b10000011100000000110011 8
b10000011100000000110011 ;
1!
#2251
b1001 m
1k
0j
1i
b111 W
#2252
b101 P"
0R
1V
0(
0i
b100 W
#2300
0!
#2350
b10000000101 *
b10000000101 4
b10000000101 >
b10000000101 J
b100000 +
b100000 5
b100000 =
b100000 I
b1 '
b1 2
b1 @
b1 N
b0 ,
b0 6
b0 <
b0 H
b110011 )
b110011 3
b110011 ?
b110011 K
b101 %
b101 0
b101 B
b101 P
b11 &
b11 1
b11 A
b11 O
b1011100 :
b1011100 C
b100100100100000110010011 /
b100100100100000110010011 F
b100 e
b10000 g
b0 R"
b1 S"
b1000000010100011000000010110011 8
b1000000010100011000000010110011 ;
17
1!
#2351
b11001 m
1k
0j
1i
b111 W
#2352
b101 P"
0R
1V
0(
0i
b100 W
#2400
0!
#2450
b1001 *
b1001 4
b1001 >
b1001 J
b100 ,
b100 6
b100 <
b100 H
b0 +
b0 5
b0 =
b0 I
b10011 )
b10011 3
b10011 ?
b10011 K
b1001 %
b1001 0
b1001 B
b1001 P
b100 &
b100 1
b100 A
b100 O
b11 '
b11 2
b11 @
b11 N
b11000000100000110010011 /
b11000000100000110010011 F
b1100000 :
b1100000 C
b100000 f
b0 e
b1000 h
b0 R"
b1 S"
17
b100100100100000110010011 8
b100100100100000110010011 ;
1!
#2451
b1000 m
1k
0j
1i
b111 W
#2452
b101 P"
0R
1V
0(
0i
b100 W
#2500
0!
#2550
b110 *
b110 4
b110 >
b110 J
b100 ,
b100 6
b100 <
b100 H
b10011 )
b10011 3
b10011 ?
b10011 K
b110 %
b110 0
b110 B
b110 P
b0 &
b0 1
b0 A
b0 O
b11 '
b11 2
b11 @
b11 N
b1100100 :
b1100100 C
b100000000001000110011 /
b100000000001000110011 F
b0 f
b100 e
b1001 h
b1001 g
b0 R"
b1 S"
b11000000100000110010011 8
b11000000100000110010011 ;
17
1!
#2551
1n
b0 m
1k
0j
1i
b111 W
#2552
b101 P"
0R
1V
0(
0i
b100 W
#2600
0!
#2650
b1 *
b1 4
b1 >
b1 J
b0 ,
b0 6
b0 <
b0 H
b110011 )
b110011 3
b110011 ?
b110011 K
b1 %
b1 0
b1 B
b1 P
b100 '
b100 2
b100 @
b100 N
b1000000010100010000001010110011 /
b1000000010100010000001010110011 F
b1101000 :
b1101000 C
b110 h
b11001 g
b0 R"
b1 S"
17
b100000000001000110011 8
b100000000001000110011 ;
1!
#2651
0n
b11111 m
1k
0j
1i
b111 W
#2652
b101 P"
0R
1V
0(
0i
b100 W
#2700
0!
#2750
b10000000101 *
b10000000101 4
b10000000101 >
b10000000101 J
b100000 +
b100000 5
b100000 =
b100000 I
b10 &
b10 1
b10 A
b10 O
b110011 )
b110011 3
b110011 ?
b110011 K
b101 %
b101 0
b101 B
b101 P
b101 '
b101 2
b101 @
b101 N
b1101100 :
b1101100 C
b1100000111000010110011 /
b1100000111000010110011 F
b0 e
b1000 h
b0 R"
b1 S"
b1000000010100010000001010110011 8
b1000000010100010000001010110011 ;
17
1!
#2751
b100001 m
1k
0j
1i
b111 W
#2752
b101 P"
0R
1V
0(
0i
b100 W
#2800
0!
#2850
b11 *
b11 4
b11 >
b11 J
b111 ,
b111 6
b111 <
b111 H
b0 +
b0 5
b0 =
b0 I
b110011 )
b110011 3
b110011 ?
b110011 K
b11 %
b11 0
b11 B
b11 P
b0 &
b0 1
b0 A
b0 O
b1 '
b1 2
b1 @
b1 N
b100000100100000100010011 /
b100000100100000100010011 F
b1110000 :
b1110000 C
b100000 f
b1000 g
b0 R"
b1 S"
17
b1100000111000010110011 8
b1100000111000010110011 ;
1!
#2851
1n
b0 m
1k
0j
1i
b111 W
#2852
b101 P"
0R
1V
0(
0i
b100 W
#2900
0!
#2950
b1000 *
b1000 4
b1000 >
b1000 J
b100 &
b100 1
b100 A
b100 O
b100 ,
b100 6
b100 <
b100 H
b10011 )
b10011 3
b10011 ?
b10011 K
b1000 %
b1000 0
b1000 B
b1000 P
b10 '
b10 2
b10 @
b10 N
b1110100 :
b1110100 C
b11000010111001010010011 /
b11000010111001010010011 F
b0 f
b111 e
b11111 h
b11001 g
b0 R"
b1 S"
b100000100100000100010011 8
b100000100100000100010011 ;
17
1!
#2951
0n
b11001 m
1k
0j
1i
b111 W
#2952
b101 P"
0R
1V
0(
0i
b100 W
#3000
0!
#3050
b110 *
b110 4
b110 >
b110 J
b111 ,
b111 6
b111 <
b111 H
b10011 )
b10011 3
b10011 ?
b10011 K
b110 %
b110 0
b110 B
b110 P
b10 &
b10 1
b10 A
b10 O
b101 '
b101 2
b101 @
b101 N
b1000000010000011000001010110011 /
b1000000010000011000001010110011 F
b1111000 :
b1111000 C
b100 e
b1000 h
b100001 g
b0 R"
b1 S"
17
b11000010111001010010011 8
b11000010111001010010011 ;
1!
#3051
b101001 m
1k
0j
1i
b111 W
#3052
b101 P"
0R
1V
0(
0i
b100 W
#3100
0!
#3150
b10000000100 *
b10000000100 4
b10000000100 >
b10000000100 J
b100000 +
b100000 5
b100000 =
b100000 I
b0 ,
b0 6
b0 <
b0 H
b110011 )
b110011 3
b110011 ?
b110011 K
b100 %
b100 0
b100 B
b100 P
b11 &
b11 1
b11 A
b11 O
b101 '
b101 2
b101 @
b101 N
b1111100 :
b1111100 C
b1111000000010011 /
b1111000000010011 F
b111 e
b110 h
b101001 g
b0 R"
b1 S"
b1000000010000011000001010110011 8
b1000000010000011000001010110011 ;
17
1!
#3151
1n
b0 m
1k
0j
1i
b111 W
#3152
b101 P"
0R
1V
0(
0i
b100 W
#3200
0!
#3250
b0 *
b0 4
b0 >
b0 J
b111 ,
b111 6
b111 <
b111 H
b0 +
b0 5
b0 =
b0 I
b10011 )
b10011 3
b10011 ?
b10011 K
b0 %
b0 0
b0 B
b0 P
b1 &
b1 1
b1 A
b1 O
b0 '
b0 2
b0 @
b0 N
b100101000000110110011 /
b100101000000110110011 F
b10000000 :
b10000000 C
b100000 f
b0 e
b100001 h
b11111 g
b0 R"
b1 S"
17
b1111000000010011 8
b1111000000010011 ;
1!
#3251
0n
b11111111111111111111111111111110 m
1k
0j
1i
b111 W
#3252
b101 P"
0R
1V
0(
0i
b100 W
#3300
0!
#3350
b1 *
b1 4
b1 >
b1 J
b1 %
b1 0
b1 B
b1 P
b11 '
b11 2
b11 @
b11 N
b0 ,
b0 6
b0 <
b0 H
b110011 )
b110011 3
b110011 ?
b110011 K
b101 &
b101 1
b101 A
b101 O
b10000100 :
b10000100 C
b10110001010010011 /
b10110001010010011 F
b0 f
b111 e
b0 h
b11001 g
b0 R"
b1 S"
b100101000000110110011 8
b100101000000110110011 ;
17
1!
#3351
1n
b0 m
1k
0j
1i
b111 W
#3352
b101 P"
0R
1V
0(
0i
b100 W
#3400
0!
#3450
b0 *
b0 4
b0 >
b0 J
b110 ,
b110 6
b110 <
b110 H
b10011 )
b10011 3
b10011 ?
b10011 K
b0 %
b0 0
b0 B
b0 P
b10 &
b10 1
b10 A
b10 O
b101 '
b101 2
b101 @
b101 N
b100001111001010010011 /
b100001111001010010011 F
b10001000 :
b10001000 C
b0 e
b11001 h
b11111111111111111111111111111110 g
b0 R"
b1 S"
17
b10110001010010011 8
b10110001010010011 ;
1!
#3451
0n
b10111 m
1k
0j
1i
b111 W
#3452
b101 P"
0R
1V
0(
0i
b100 W
#3500
0!
#3550
b1 *
b1 4
b1 >
b1 J
b1 %
b1 0
b1 B
b1 P
b111 ,
b111 6
b111 <
b111 H
b10011 )
b10011 3
b10011 ?
b10011 K
b1 &
b1 1
b1 A
b1 O
b101 '
b101 2
b101 @
b101 N
b10001100 :
b10001100 C
b100100000100000110010011 /
b100100000100000110010011 F
b110 e
b0 h
b101001 g
b0 R"
b1 S"
b100001111001010010011 8
b100001111001010010011 ;
17
1!
#3551
b101001 m
1k
0j
1i
b111 W
#3552
b101 P"
0R
1V
0(
0i
b100 W
#3600
0!
#3650
b1001 *
b1001 4
b1001 >
b1001 J
b100 ,
b100 6
b100 <
b100 H
b10011 )
b10011 3
b10011 ?
b10011 K
b1001 %
b1001 0
b1001 B
b1001 P
b0 &
b0 1
b0 A
b0 O
b11 '
b11 2
b11 @
b11 N
b10000010000001010010011 /
b10000010000001010010011 F
b10010000 :
b10010000 C
b111 e
b1 h
b11001 g
b0 R"
b1 S"
17
b100100000100000110010011 8
b100100000100000110010011 ;
1!
#3651
b1 m
1k
0j
1i
b111 W
#3652
b101 P"
0R
1V
0(
0i
b100 W
#3700
0!
#3750
b100 *
b100 4
b100 >
b100 J
b10 &
b10 1
b10 A
b10 O
b0 ,
b0 6
b0 <
b0 H
b10011 )
b10011 3
b10011 ?
b10011 K
b100 %
b100 0
b100 B
b100 P
b101 '
b101 2
b101 @
b101 N
b10010100 :
b10010100 C
b100010000000110010011 /
b100010000000110010011 F
b100 e
b1001 h
b0 g
b0 R"
b1 S"
b10000010000001010010011 8
b10000010000001010010011 ;
17
1!
#3751
b1001 m
1k
0j
1i
b111 W
#3752
b101 P"
0R
1V
0(
0i
b100 W
#3800
0!
#3850
b1 *
b1 4
b1 >
b1 J
b10011 )
b10011 3
b10011 ?
b10011 K
b1 %
b1 0
b1 B
b1 P
b10 &
b10 1
b10 A
b10 O
b11 '
b11 2
b11 @
b11 N
b10100101110000110010011 /
b10100101110000110010011 F
b10011000 :
b10011000 C
b0 e
b100 h
b101001 g
b0 R"
b1 S"
17
b100010000000110010011 8
b100010000000110010011 ;
1!
#3851
b101101 m
1k
0j
1i
b111 W
#3852
b101 P"
0R
1V
0(
0i
b100 W
#3900
0!
#3950
b101 *
b101 4
b101 >
b101 J
b110 ,
b110 6
b110 <
b110 H
b10011 )
b10011 3
b10011 ?
b10011 K
b101 %
b101 0
b101 B
b101 P
b101 &
b101 1
b101 A
b101 O
b11 '
b11 2
b11 @
b11 N
b10011100 :
b10011100 C
b1000000110001010110011 /
b1000000110001010110011 F
b1 h
b0 R"
b1 S"
b10100101110000110010011 8
b10100101110000110010011 ;
17
1!
#3951
b101010 m
1k
0j
1i
b111 W
#3952
b101 P"
0R
1V
0(
0i
b100 W
#4000
0!
